%YAML 1.1
%TAG !u! tag:unity3d.com,2011:
--- !u!114 &11400000
MonoBehaviour:
  m_ObjectHideFlags: 0
  m_CorrespondingSourceObject: {fileID: 0}
  m_PrefabInstance: {fileID: 0}
  m_PrefabAsset: {fileID: 0}
  m_GameObject: {fileID: 0}
  m_Enabled: 1
  m_EditorHideFlags: 0
  m_Script: {fileID: 11500000, guid: 328e3e4ccb92f4170af5127ef6cccdc1, type: 3}
  m_Name: EditorNotificationCenter 5
  m_EditorClassIdentifier: 
  m_supportedNotificationTypes: 7
  m_isRegisteredForRemoteNotifications: 0
