%YAML 1.1
%TAG !u! tag:unity3d.com,2011:
--- !u!1 &1002641447151566
GameObject:
  m_ObjectHideFlags: 0
  m_CorrespondingSourceObject: {fileID: 0}
  m_PrefabInstance: {fileID: 0}
  m_PrefabAsset: {fileID: 0}
  serializedVersion: 6
  m_Component:
  - component: {fileID: 224912172881473094}
  - component: {fileID: 222303775119314860}
  - component: {fileID: 114064843294084330}
  m_Layer: 0
  m_Name: Background
  m_TagString: Untagged
  m_Icon: {fileID: 0}
  m_NavMeshLayer: 0
  m_StaticEditorFlags: 0
  m_IsActive: 1
--- !u!224 &224912172881473094
RectTransform:
  m_ObjectHideFlags: 0
  m_CorrespondingSourceObject: {fileID: 0}
  m_PrefabInstance: {fileID: 0}
  m_PrefabAsset: {fileID: 0}
  m_GameObject: {fileID: 1002641447151566}
  m_LocalRotation: {x: 0, y: 0, z: 0, w: 1}
  m_LocalPosition: {x: 0, y: 0, z: 0}
  m_LocalScale: {x: 1, y: 1, z: 1}
  m_Children: []
  m_Father: {fileID: 224765862293970358}
  m_RootOrder: 0
  m_LocalEulerAnglesHint: {x: 0, y: 0, z: 0}
  m_AnchorMin: {x: 0, y: 0}
  m_AnchorMax: {x: 1, y: 1}
  m_AnchoredPosition: {x: 0, y: 0}
  m_SizeDelta: {x: 0, y: 0}
  m_Pivot: {x: 0.5, y: 0.5}
--- !u!222 &222303775119314860
CanvasRenderer:
  m_ObjectHideFlags: 0
  m_CorrespondingSourceObject: {fileID: 0}
  m_PrefabInstance: {fileID: 0}
  m_PrefabAsset: {fileID: 0}
  m_GameObject: {fileID: 1002641447151566}
  m_CullTransparentMesh: 0
--- !u!114 &114064843294084330
MonoBehaviour:
  m_ObjectHideFlags: 0
  m_CorrespondingSourceObject: {fileID: 0}
  m_PrefabInstance: {fileID: 0}
  m_PrefabAsset: {fileID: 0}
  m_GameObject: {fileID: 1002641447151566}
  m_Enabled: 1
  m_EditorHideFlags: 0
  m_Script: {fileID: -765806418, guid: f70555f144d8491a825f0804e09c671c, type: 3}
  m_Name: 
  m_EditorClassIdentifier: 
  m_Material: {fileID: 0}
  m_Color: {r: 0, g: 0, b: 0, a: 0.49019608}
  m_RaycastTarget: 1
  m_OnCullStateChanged:
    m_PersistentCalls:
      m_Calls: []
  m_Sprite: {fileID: 0}
  m_Type: 0
  m_PreserveAspect: 0
  m_FillCenter: 1
  m_FillMethod: 4
  m_FillAmount: 1
  m_FillClockwise: 1
  m_FillOrigin: 0
  m_UseSpriteMesh: 0
--- !u!1 &1230297528054108
GameObject:
  m_ObjectHideFlags: 0
  m_CorrespondingSourceObject: {fileID: 0}
  m_PrefabInstance: {fileID: 0}
  m_PrefabAsset: {fileID: 0}
  serializedVersion: 6
  m_Component:
  - component: {fileID: 224212441510328902}
  - component: {fileID: 222318628114997736}
  - component: {fileID: 114114672187594402}
  m_Layer: 5
  m_Name: Notification Title
  m_TagString: Untagged
  m_Icon: {fileID: 0}
  m_NavMeshLayer: 0
  m_StaticEditorFlags: 0
  m_IsActive: 1
--- !u!224 &224212441510328902
RectTransform:
  m_ObjectHideFlags: 0
  m_CorrespondingSourceObject: {fileID: 0}
  m_PrefabInstance: {fileID: 0}
  m_PrefabAsset: {fileID: 0}
  m_GameObject: {fileID: 1230297528054108}
  m_LocalRotation: {x: -0, y: -0, z: -0, w: 1}
  m_LocalPosition: {x: 0, y: 0, z: 0}
  m_LocalScale: {x: 1, y: 1, z: 1}
  m_Children: []
  m_Father: {fileID: 224777973253788046}
  m_RootOrder: 1
  m_LocalEulerAnglesHint: {x: 0, y: 0, z: 0}
  m_AnchorMin: {x: 0.08263348, y: 0.7577406}
  m_AnchorMax: {x: 0.91736627, y: 0.9099376}
  m_AnchoredPosition: {x: 0, y: 0}
  m_SizeDelta: {x: 0, y: 0}
  m_Pivot: {x: 0.5, y: 0.5}
--- !u!222 &222318628114997736
CanvasRenderer:
  m_ObjectHideFlags: 0
  m_CorrespondingSourceObject: {fileID: 0}
  m_PrefabInstance: {fileID: 0}
  m_PrefabAsset: {fileID: 0}
  m_GameObject: {fileID: 1230297528054108}
  m_CullTransparentMesh: 0
--- !u!114 &114114672187594402
MonoBehaviour:
  m_ObjectHideFlags: 0
  m_CorrespondingSourceObject: {fileID: 0}
  m_PrefabInstance: {fileID: 0}
  m_PrefabAsset: {fileID: 0}
  m_GameObject: {fileID: 1230297528054108}
  m_Enabled: 1
  m_EditorHideFlags: 0
  m_Script: {fileID: 708705254, guid: f70555f144d8491a825f0804e09c671c, type: 3}
  m_Name: 
  m_EditorClassIdentifier: 
  m_Material: {fileID: 0}
  m_Color: {r: 0, g: 0, b: 0, a: 1}
  m_RaycastTarget: 0
  m_OnCullStateChanged:
    m_PersistentCalls:
      m_Calls: []
  m_FontData:
    m_Font: {fileID: 12800000, guid: f841c671835a244959b7f6d4a910e729, type: 3}
    m_FontSize: 49
    m_FontStyle: 1
    m_BestFit: 0
    m_MinSize: 4
    m_MaxSize: 86
    m_Alignment: 4
    m_AlignByGeometry: 0
    m_RichText: 1
    m_HorizontalOverflow: 0
    m_VerticalOverflow: 1
    m_LineSpacing: 1
  m_Text: Take asthma control test
--- !u!1 &1325448433437042
GameObject:
  m_ObjectHideFlags: 0
  m_CorrespondingSourceObject: {fileID: 0}
  m_PrefabInstance: {fileID: 0}
  m_PrefabAsset: {fileID: 0}
  serializedVersion: 6
  m_Component:
  - component: {fileID: 224435193430412496}
  - component: {fileID: 222570053821181630}
  - component: {fileID: 114101961526497636}
  - component: {fileID: 114375171093413772}
  - component: {fileID: 114716783395671876}
  m_Layer: 5
  m_Name: Notification Button 1
  m_TagString: Untagged
  m_Icon: {fileID: 0}
  m_NavMeshLayer: 0
  m_StaticEditorFlags: 0
  m_IsActive: 1
--- !u!224 &224435193430412496
RectTransform:
  m_ObjectHideFlags: 0
  m_CorrespondingSourceObject: {fileID: 0}
  m_PrefabInstance: {fileID: 0}
  m_PrefabAsset: {fileID: 0}
  m_GameObject: {fileID: 1325448433437042}
  m_LocalRotation: {x: -0.0059701684, y: -0, z: -0, w: 0.99998224}
  m_LocalPosition: {x: 0, y: 0, z: -0.7522279}
  m_LocalScale: {x: 1, y: 1, z: 1}
  m_Children:
  - {fileID: 224829080101277228}
  m_Father: {fileID: 224875524645368128}
  m_RootOrder: 2
  m_LocalEulerAnglesHint: {x: 0, y: 0, z: 0}
  m_AnchorMin: {x: 0.50815105, y: 0.00014465673}
  m_AnchorMax: {x: 1, y: 0}
  m_AnchoredPosition: {x: 0, y: 63}
  m_SizeDelta: {x: 0, y: 126}
  m_Pivot: {x: 0.5, y: 0.5}
--- !u!222 &222570053821181630
CanvasRenderer:
  m_ObjectHideFlags: 0
  m_CorrespondingSourceObject: {fileID: 0}
  m_PrefabInstance: {fileID: 0}
  m_PrefabAsset: {fileID: 0}
  m_GameObject: {fileID: 1325448433437042}
  m_CullTransparentMesh: 0
--- !u!114 &114101961526497636
MonoBehaviour:
  m_ObjectHideFlags: 0
  m_CorrespondingSourceObject: {fileID: 0}
  m_PrefabInstance: {fileID: 0}
  m_PrefabAsset: {fileID: 0}
  m_GameObject: {fileID: 1325448433437042}
  m_Enabled: 1
  m_EditorHideFlags: 0
  m_Script: {fileID: -765806418, guid: f70555f144d8491a825f0804e09c671c, type: 3}
  m_Name: 
  m_EditorClassIdentifier: 
  m_Material: {fileID: 0}
  m_Color: {r: 1, g: 1, b: 1, a: 0}
  m_RaycastTarget: 1
  m_OnCullStateChanged:
    m_PersistentCalls:
      m_Calls: []
  m_Sprite: {fileID: 0}
  m_Type: 1
  m_PreserveAspect: 0
  m_FillCenter: 1
  m_FillMethod: 4
  m_FillAmount: 1
  m_FillClockwise: 1
  m_FillOrigin: 0
  m_UseSpriteMesh: 0
--- !u!114 &114375171093413772
MonoBehaviour:
  m_ObjectHideFlags: 0
  m_CorrespondingSourceObject: {fileID: 0}
  m_PrefabInstance: {fileID: 0}
  m_PrefabAsset: {fileID: 0}
  m_GameObject: {fileID: 1325448433437042}
  m_Enabled: 1
  m_EditorHideFlags: 0
  m_Script: {fileID: 1392445389, guid: f70555f144d8491a825f0804e09c671c, type: 3}
  m_Name: 
  m_EditorClassIdentifier: 
  m_Navigation:
    m_Mode: 3
    m_SelectOnUp: {fileID: 0}
    m_SelectOnDown: {fileID: 0}
    m_SelectOnLeft: {fileID: 0}
    m_SelectOnRight: {fileID: 0}
  m_Transition: 1
  m_Colors:
    m_NormalColor: {r: 1, g: 1, b: 1, a: 1}
    m_HighlightedColor: {r: 0.9607843, g: 0.9607843, b: 0.9607843, a: 1}
    m_PressedColor: {r: 0.78431374, g: 0.78431374, b: 0.78431374, a: 1}
    m_DisabledColor: {r: 0.78431374, g: 0.78431374, b: 0.78431374, a: 0.5019608}
    m_ColorMultiplier: 1
    m_FadeDuration: 0.1
  m_SpriteState:
    m_HighlightedSprite: {fileID: 0}
    m_PressedSprite: {fileID: 0}
    m_DisabledSprite: {fileID: 0}
  m_AnimationTriggers:
    m_NormalTrigger: Normal
    m_HighlightedTrigger: Highlighted
    m_PressedTrigger: Pressed
    m_DisabledTrigger: Disabled
  m_Interactable: 1
  m_TargetGraphic: {fileID: 114101961526497636}
  m_OnClick:
    m_PersistentCalls:
      m_Calls: []
--- !u!114 &114716783395671876
MonoBehaviour:
  m_ObjectHideFlags: 0
  m_CorrespondingSourceObject: {fileID: 0}
  m_PrefabInstance: {fileID: 0}
  m_PrefabAsset: {fileID: 0}
  m_GameObject: {fileID: 1325448433437042}
  m_Enabled: 1
  m_EditorHideFlags: 0
  m_Script: {fileID: 11500000, guid: 682849f091f20484485c3a8e6c1e0b1f, type: 3}
  m_Name: 
  m_EditorClassIdentifier: 
  debug: 0
  buttonCategory: Uncategorized
  buttonName: ~Button Name~
  allowMultipleClicks: 0
  deselectButtonOnClick: 1
  disableButtonInterval: 0.4
  useOnPointerEnter: 0
  onPointerEnterDisableInterval: 0.4
  onPointerEnterSound: ~No Sound~
  customOnPointerEnterSound: 0
  OnPointerEnter:
    m_PersistentCalls:
      m_Calls: []
  onPointerEnterAnimationType: 0
  onPointerEnterPunchPresetCategory: Uncategorized
  onPointerEnterPunchPresetName: DefaultPreset
  loadOnPointerEnterPunchPresetAtRuntime: 0
  onPointerEnterPunch:
    move:
      enabled: 0
      punch: {x: 0, y: 20, z: 0}
      startDelay: 0
      duration: 0.3
      vibrato: 4
      elasticity: 0.5
    rotate:
      enabled: 0
      punch: {x: 0, y: 0, z: 30}
      startDelay: 0
      duration: 0.3
      vibrato: 4
      elasticity: 0.5
    scale:
      enabled: 0
      punch: {x: 0.2, y: 0.2, z: 0}
      startDelay: 0
      duration: 0.3
      vibrato: 4
      elasticity: 0.5
    moveIsExpanded:
      m_Target: 0
      speed: 2
      m_Value: 0
    rotateIsExpanded:
      m_Target: 0
      speed: 2
      m_Value: 0
    scaleIsExpanded:
      m_Target: 0
      speed: 2
      m_Value: 0
  onPointerEnterStatePresetCategory: Uncategorized
  onPointerEnterStatePresetName: DefaultPreset
  loadOnPointerEnterStatePresetAtRuntime: 0
  onPointerEnterState:
    animationType: 2
    move:
      enabled: 0
      animationType: 2
      moveDirection: 0
      customPosition: {x: 0, y: 0, z: 0}
      easeType: 0
      ease: 1
      animationCurve:
        serializedVersion: 2
        m_Curve: []
        m_PreInfinity: 2
        m_PostInfinity: 2
        m_RotationOrder: 4
      startDelay: 0
      duration: 0.5
    rotate:
      enabled: 0
      animationType: 2
      rotation: {x: 0, y: 0, z: 0}
      rotateMode: 1
      easeType: 0
      ease: 1
      animationCurve:
        serializedVersion: 2
        m_Curve: []
        m_PreInfinity: 2
        m_PostInfinity: 2
        m_RotationOrder: 4
      startDelay: 0
      duration: 0.5
    scale:
      enabled: 0
      animationType: 2
      scale: {x: 0, y: 0, z: 0}
      easeType: 0
      ease: 1
      animationCurve:
        serializedVersion: 2
        m_Curve: []
        m_PreInfinity: 2
        m_PostInfinity: 2
        m_RotationOrder: 4
      startDelay: 0
      duration: 0.5
    fade:
      enabled: 0
      animationType: 2
      alpha: 1
      easeType: 0
      ease: 1
      animationCurve:
        serializedVersion: 2
        m_Curve: []
        m_PreInfinity: 2
        m_PostInfinity: 2
        m_RotationOrder: 4
      startDelay: 0
      duration: 0.5
    moveIsExpanded:
      m_Target: 0
      speed: 2
      m_Value: 0
    rotateIsExpanded:
      m_Target: 0
      speed: 2
      m_Value: 0
    scaleIsExpanded:
      m_Target: 0
      speed: 2
      m_Value: 0
    fadeIsExpanded:
      m_Target: 0
      speed: 2
      m_Value: 0
  onPointerEnterGameEvents: []
  onPointerEnterNavigation:
    addToNavigationHistory: 0
    show: []
    hide: []
  useOnPointerExit: 0
  onPointerExitDisableInterval: 0.4
  onPointerExitSound: ~No Sound~
  customOnPointerExitSound: 0
  OnPointerExit:
    m_PersistentCalls:
      m_Calls: []
  onPointerExitAnimationType: 0
  onPointerExitPunchPresetCategory: Uncategorized
  onPointerExitPunchPresetName: DefaultPreset
  loadOnPointerExitPunchPresetAtRuntime: 0
  onPointerExitPunch:
    move:
      enabled: 0
      punch: {x: 0, y: 20, z: 0}
      startDelay: 0
      duration: 0.3
      vibrato: 4
      elasticity: 0.5
    rotate:
      enabled: 0
      punch: {x: 0, y: 0, z: 30}
      startDelay: 0
      duration: 0.3
      vibrato: 4
      elasticity: 0.5
    scale:
      enabled: 0
      punch: {x: 0.2, y: 0.2, z: 0}
      startDelay: 0
      duration: 0.3
      vibrato: 4
      elasticity: 0.5
    moveIsExpanded:
      m_Target: 0
      speed: 2
      m_Value: 0
    rotateIsExpanded:
      m_Target: 0
      speed: 2
      m_Value: 0
    scaleIsExpanded:
      m_Target: 0
      speed: 2
      m_Value: 0
  onPointerExitStatePresetCategory: Uncategorized
  onPointerExitStatePresetName: DefaultPreset
  loadOnPointerExitStatePresetAtRuntime: 0
  onPointerExitState:
    animationType: 2
    move:
      enabled: 0
      animationType: 2
      moveDirection: 0
      customPosition: {x: 0, y: 0, z: 0}
      easeType: 0
      ease: 1
      animationCurve:
        serializedVersion: 2
        m_Curve: []
        m_PreInfinity: 2
        m_PostInfinity: 2
        m_RotationOrder: 4
      startDelay: 0
      duration: 0.5
    rotate:
      enabled: 0
      animationType: 2
      rotation: {x: 0, y: 0, z: 0}
      rotateMode: 1
      easeType: 0
      ease: 1
      animationCurve:
        serializedVersion: 2
        m_Curve: []
        m_PreInfinity: 2
        m_PostInfinity: 2
        m_RotationOrder: 4
      startDelay: 0
      duration: 0.5
    scale:
      enabled: 0
      animationType: 2
      scale: {x: 0, y: 0, z: 0}
      easeType: 0
      ease: 1
      animationCurve:
        serializedVersion: 2
        m_Curve: []
        m_PreInfinity: 2
        m_PostInfinity: 2
        m_RotationOrder: 4
      startDelay: 0
      duration: 0.5
    fade:
      enabled: 0
      animationType: 2
      alpha: 1
      easeType: 0
      ease: 1
      animationCurve:
        serializedVersion: 2
        m_Curve: []
        m_PreInfinity: 2
        m_PostInfinity: 2
        m_RotationOrder: 4
      startDelay: 0
      duration: 0.5
    moveIsExpanded:
      m_Target: 0
      speed: 2
      m_Value: 0
    rotateIsExpanded:
      m_Target: 0
      speed: 2
      m_Value: 0
    scaleIsExpanded:
      m_Target: 0
      speed: 2
      m_Value: 0
    fadeIsExpanded:
      m_Target: 0
      speed: 2
      m_Value: 0
  onPointerExitGameEvents: []
  onPointerExitNavigation:
    addToNavigationHistory: 0
    show: []
    hide: []
  useOnPointerDown: 0
  onPointerDownSound: ~No Sound~
  customOnPointerDownSound: 0
  OnPointerDown:
    m_PersistentCalls:
      m_Calls: []
  onPointerDownAnimationType: 0
  onPointerDownPunchPresetCategory: Uncategorized
  onPointerDownPunchPresetName: DefaultPreset
  loadOnPointerDownPunchPresetAtRuntime: 0
  onPointerDownPunch:
    move:
      enabled: 0
      punch: {x: 0, y: 20, z: 0}
      startDelay: 0
      duration: 0.3
      vibrato: 4
      elasticity: 0.5
    rotate:
      enabled: 0
      punch: {x: 0, y: 0, z: 30}
      startDelay: 0
      duration: 0.3
      vibrato: 4
      elasticity: 0.5
    scale:
      enabled: 0
      punch: {x: 0.2, y: 0.2, z: 0}
      startDelay: 0
      duration: 0.3
      vibrato: 4
      elasticity: 0.5
    moveIsExpanded:
      m_Target: 0
      speed: 2
      m_Value: 0
    rotateIsExpanded:
      m_Target: 0
      speed: 2
      m_Value: 0
    scaleIsExpanded:
      m_Target: 0
      speed: 2
      m_Value: 0
  onPointerDownStatePresetCategory: Uncategorized
  onPointerDownStatePresetName: DefaultPreset
  loadOnPointerDownStatePresetAtRuntime: 0
  onPointerDownState:
    animationType: 2
    move:
      enabled: 0
      animationType: 2
      moveDirection: 0
      customPosition: {x: 0, y: 0, z: 0}
      easeType: 0
      ease: 1
      animationCurve:
        serializedVersion: 2
        m_Curve: []
        m_PreInfinity: 2
        m_PostInfinity: 2
        m_RotationOrder: 4
      startDelay: 0
      duration: 0.5
    rotate:
      enabled: 0
      animationType: 2
      rotation: {x: 0, y: 0, z: 0}
      rotateMode: 1
      easeType: 0
      ease: 1
      animationCurve:
        serializedVersion: 2
        m_Curve: []
        m_PreInfinity: 2
        m_PostInfinity: 2
        m_RotationOrder: 4
      startDelay: 0
      duration: 0.5
    scale:
      enabled: 0
      animationType: 2
      scale: {x: 0, y: 0, z: 0}
      easeType: 0
      ease: 1
      animationCurve:
        serializedVersion: 2
        m_Curve: []
        m_PreInfinity: 2
        m_PostInfinity: 2
        m_RotationOrder: 4
      startDelay: 0
      duration: 0.5
    fade:
      enabled: 0
      animationType: 2
      alpha: 1
      easeType: 0
      ease: 1
      animationCurve:
        serializedVersion: 2
        m_Curve: []
        m_PreInfinity: 2
        m_PostInfinity: 2
        m_RotationOrder: 4
      startDelay: 0
      duration: 0.5
    moveIsExpanded:
      m_Target: 0
      speed: 2
      m_Value: 0
    rotateIsExpanded:
      m_Target: 0
      speed: 2
      m_Value: 0
    scaleIsExpanded:
      m_Target: 0
      speed: 2
      m_Value: 0
    fadeIsExpanded:
      m_Target: 0
      speed: 2
      m_Value: 0
  onPointerDownGameEvents: []
  onPointerDownNavigation:
    addToNavigationHistory: 0
    show: []
    hide: []
  useOnPointerUp: 0
  onPointerUpSound: ~No Sound~
  customOnPointerUpSound: 0
  OnPointerUp:
    m_PersistentCalls:
      m_Calls: []
  onPointerUpAnimationType: 0
  onPointerUpPunchPresetCategory: Uncategorized
  onPointerUpPunchPresetName: DefaultPreset
  loadOnPointerUpPunchPresetAtRuntime: 0
  onPointerUpPunch:
    move:
      enabled: 0
      punch: {x: 0, y: 20, z: 0}
      startDelay: 0
      duration: 0.3
      vibrato: 4
      elasticity: 0.5
    rotate:
      enabled: 0
      punch: {x: 0, y: 0, z: 30}
      startDelay: 0
      duration: 0.3
      vibrato: 4
      elasticity: 0.5
    scale:
      enabled: 0
      punch: {x: 0.2, y: 0.2, z: 0}
      startDelay: 0
      duration: 0.3
      vibrato: 4
      elasticity: 0.5
    moveIsExpanded:
      m_Target: 0
      speed: 2
      m_Value: 0
    rotateIsExpanded:
      m_Target: 0
      speed: 2
      m_Value: 0
    scaleIsExpanded:
      m_Target: 0
      speed: 2
      m_Value: 0
  onPointerUpStatePresetCategory: Uncategorized
  onPointerUpStatePresetName: DefaultPreset
  loadOnPointerUpStatePresetAtRuntime: 0
  onPointerUpState:
    animationType: 2
    move:
      enabled: 0
      animationType: 2
      moveDirection: 0
      customPosition: {x: 0, y: 0, z: 0}
      easeType: 0
      ease: 1
      animationCurve:
        serializedVersion: 2
        m_Curve: []
        m_PreInfinity: 2
        m_PostInfinity: 2
        m_RotationOrder: 4
      startDelay: 0
      duration: 0.5
    rotate:
      enabled: 0
      animationType: 2
      rotation: {x: 0, y: 0, z: 0}
      rotateMode: 1
      easeType: 0
      ease: 1
      animationCurve:
        serializedVersion: 2
        m_Curve: []
        m_PreInfinity: 2
        m_PostInfinity: 2
        m_RotationOrder: 4
      startDelay: 0
      duration: 0.5
    scale:
      enabled: 0
      animationType: 2
      scale: {x: 0, y: 0, z: 0}
      easeType: 0
      ease: 1
      animationCurve:
        serializedVersion: 2
        m_Curve: []
        m_PreInfinity: 2
        m_PostInfinity: 2
        m_RotationOrder: 4
      startDelay: 0
      duration: 0.5
    fade:
      enabled: 0
      animationType: 2
      alpha: 1
      easeType: 0
      ease: 1
      animationCurve:
        serializedVersion: 2
        m_Curve: []
        m_PreInfinity: 2
        m_PostInfinity: 2
        m_RotationOrder: 4
      startDelay: 0
      duration: 0.5
    moveIsExpanded:
      m_Target: 0
      speed: 2
      m_Value: 0
    rotateIsExpanded:
      m_Target: 0
      speed: 2
      m_Value: 0
    scaleIsExpanded:
      m_Target: 0
      speed: 2
      m_Value: 0
    fadeIsExpanded:
      m_Target: 0
      speed: 2
      m_Value: 0
  onPointerUpGameEvents: []
  onPointerUpNavigation:
    addToNavigationHistory: 0
    show: []
    hide: []
  useOnClickAnimations: 1
  waitForOnClickAnimation: 1
  singleClickMode: 0
  onClickSound: ~No Sound~
  customOnClickSound: 0
  OnClick:
    m_PersistentCalls:
      m_Calls: []
  onClickAnimationType: 0
  onClickPunchPresetCategory: Uncategorized
  onClickPunchPresetName: DefaultPreset
  loadOnClickPunchPresetAtRuntime: 0
  onClickPunch:
    move:
      enabled: 0
      punch: {x: 0, y: 20, z: 0}
      startDelay: 0
      duration: 0.3
      vibrato: 4
      elasticity: 0.5
    rotate:
      enabled: 0
      punch: {x: 0, y: 0, z: 30}
      startDelay: 0
      duration: 0.3
      vibrato: 4
      elasticity: 0.5
    scale:
      enabled: 0
      punch: {x: 0.2, y: 0.2, z: 0}
      startDelay: 0
      duration: 0.3
      vibrato: 4
      elasticity: 0.5
    moveIsExpanded:
      m_Target: 0
      speed: 2
      m_Value: 0
    rotateIsExpanded:
      m_Target: 0
      speed: 2
      m_Value: 0
    scaleIsExpanded:
      m_Target: 0
      speed: 2
      m_Value: 0
  onClickStatePresetCategory: Uncategorized
  onClickStatePresetName: DefaultPreset
  loadOnClickStatePresetAtRuntime: 0
  onClickState:
    animationType: 2
    move:
      enabled: 0
      animationType: 2
      moveDirection: 0
      customPosition: {x: 0, y: 0, z: 0}
      easeType: 0
      ease: 1
      animationCurve:
        serializedVersion: 2
        m_Curve: []
        m_PreInfinity: 2
        m_PostInfinity: 2
        m_RotationOrder: 4
      startDelay: 0
      duration: 0.5
    rotate:
      enabled: 0
      animationType: 2
      rotation: {x: 0, y: 0, z: 0}
      rotateMode: 1
      easeType: 0
      ease: 1
      animationCurve:
        serializedVersion: 2
        m_Curve: []
        m_PreInfinity: 2
        m_PostInfinity: 2
        m_RotationOrder: 4
      startDelay: 0
      duration: 0.5
    scale:
      enabled: 0
      animationType: 2
      scale: {x: 0, y: 0, z: 0}
      easeType: 0
      ease: 1
      animationCurve:
        serializedVersion: 2
        m_Curve: []
        m_PreInfinity: 2
        m_PostInfinity: 2
        m_RotationOrder: 4
      startDelay: 0
      duration: 0.5
    fade:
      enabled: 0
      animationType: 2
      alpha: 1
      easeType: 0
      ease: 1
      animationCurve:
        serializedVersion: 2
        m_Curve: []
        m_PreInfinity: 2
        m_PostInfinity: 2
        m_RotationOrder: 4
      startDelay: 0
      duration: 0.5
    moveIsExpanded:
      m_Target: 0
      speed: 2
      m_Value: 0
    rotateIsExpanded:
      m_Target: 0
      speed: 2
      m_Value: 0
    scaleIsExpanded:
      m_Target: 0
      speed: 2
      m_Value: 0
    fadeIsExpanded:
      m_Target: 0
      speed: 2
      m_Value: 0
  onClickGameEvents: []
  onClickNavigation:
    addToNavigationHistory: 0
    show: []
    hide: []
  useOnDoubleClick: 0
  waitForOnDoubleClickAnimation: 1
  doubleClickRegisterInterval: 0.2
  onDoubleClickSound: ~No Sound~
  customOnDoubleClickSound: 0
  OnDoubleClick:
    m_PersistentCalls:
      m_Calls: []
  onDoubleClickAnimationType: 0
  onDoubleClickPunchPresetCategory: Uncategorized
  onDoubleClickPunchPresetName: DefaultPreset
  loadOnDoubleClickPunchPresetAtRuntime: 0
  onDoubleClickPunch:
    move:
      enabled: 0
      punch: {x: 0, y: 20, z: 0}
      startDelay: 0
      duration: 0.3
      vibrato: 4
      elasticity: 0.5
    rotate:
      enabled: 0
      punch: {x: 0, y: 0, z: 30}
      startDelay: 0
      duration: 0.3
      vibrato: 4
      elasticity: 0.5
    scale:
      enabled: 0
      punch: {x: 0.2, y: 0.2, z: 0}
      startDelay: 0
      duration: 0.3
      vibrato: 4
      elasticity: 0.5
    moveIsExpanded:
      m_Target: 0
      speed: 2
      m_Value: 0
    rotateIsExpanded:
      m_Target: 0
      speed: 2
      m_Value: 0
    scaleIsExpanded:
      m_Target: 0
      speed: 2
      m_Value: 0
  onDoubleClickStatePresetCategory: Uncategorized
  onDoubleClickStatePresetName: DefaultPreset
  loadOnDoubleClickStatePresetAtRuntime: 0
  onDoubleClickState:
    animationType: 2
    move:
      enabled: 0
      animationType: 2
      moveDirection: 0
      customPosition: {x: 0, y: 0, z: 0}
      easeType: 0
      ease: 1
      animationCurve:
        serializedVersion: 2
        m_Curve: []
        m_PreInfinity: 2
        m_PostInfinity: 2
        m_RotationOrder: 4
      startDelay: 0
      duration: 0.5
    rotate:
      enabled: 0
      animationType: 2
      rotation: {x: 0, y: 0, z: 0}
      rotateMode: 1
      easeType: 0
      ease: 1
      animationCurve:
        serializedVersion: 2
        m_Curve: []
        m_PreInfinity: 2
        m_PostInfinity: 2
        m_RotationOrder: 4
      startDelay: 0
      duration: 0.5
    scale:
      enabled: 0
      animationType: 2
      scale: {x: 0, y: 0, z: 0}
      easeType: 0
      ease: 1
      animationCurve:
        serializedVersion: 2
        m_Curve: []
        m_PreInfinity: 2
        m_PostInfinity: 2
        m_RotationOrder: 4
      startDelay: 0
      duration: 0.5
    fade:
      enabled: 0
      animationType: 2
      alpha: 1
      easeType: 0
      ease: 1
      animationCurve:
        serializedVersion: 2
        m_Curve: []
        m_PreInfinity: 2
        m_PostInfinity: 2
        m_RotationOrder: 4
      startDelay: 0
      duration: 0.5
    moveIsExpanded:
      m_Target: 0
      speed: 2
      m_Value: 0
    rotateIsExpanded:
      m_Target: 0
      speed: 2
      m_Value: 0
    scaleIsExpanded:
      m_Target: 0
      speed: 2
      m_Value: 0
    fadeIsExpanded:
      m_Target: 0
      speed: 2
      m_Value: 0
  onDoubleClickGameEvents: []
  onDoubleClickNavigation:
    addToNavigationHistory: 0
    show: []
    hide: []
  useOnLongClick: 0
  waitForOnLongClickAnimation: 1
  longClickRegisterInterval: 0.5
  onLongClickSound: ~No Sound~
  customOnLongClickSound: 0
  OnLongClick:
    m_PersistentCalls:
      m_Calls: []
  onLongClickAnimationType: 0
  onLongClickPunchPresetCategory: Uncategorized
  onLongClickPunchPresetName: DefaultPreset
  loadOnLongClickPunchPresetAtRuntime: 0
  onLongClickPunch:
    move:
      enabled: 0
      punch: {x: 0, y: 20, z: 0}
      startDelay: 0
      duration: 0.3
      vibrato: 4
      elasticity: 0.5
    rotate:
      enabled: 0
      punch: {x: 0, y: 0, z: 30}
      startDelay: 0
      duration: 0.3
      vibrato: 4
      elasticity: 0.5
    scale:
      enabled: 0
      punch: {x: 0.2, y: 0.2, z: 0}
      startDelay: 0
      duration: 0.3
      vibrato: 4
      elasticity: 0.5
    moveIsExpanded:
      m_Target: 0
      speed: 2
      m_Value: 0
    rotateIsExpanded:
      m_Target: 0
      speed: 2
      m_Value: 0
    scaleIsExpanded:
      m_Target: 0
      speed: 2
      m_Value: 0
  onLongClickStatePresetCategory: Uncategorized
  onLongClickStatePresetName: DefaultPreset
  loadOnLongClickStatePresetAtRuntime: 0
  onLongClickState:
    animationType: 2
    move:
      enabled: 0
      animationType: 2
      moveDirection: 0
      customPosition: {x: 0, y: 0, z: 0}
      easeType: 0
      ease: 1
      animationCurve:
        serializedVersion: 2
        m_Curve: []
        m_PreInfinity: 2
        m_PostInfinity: 2
        m_RotationOrder: 4
      startDelay: 0
      duration: 0.5
    rotate:
      enabled: 0
      animationType: 2
      rotation: {x: 0, y: 0, z: 0}
      rotateMode: 1
      easeType: 0
      ease: 1
      animationCurve:
        serializedVersion: 2
        m_Curve: []
        m_PreInfinity: 2
        m_PostInfinity: 2
        m_RotationOrder: 4
      startDelay: 0
      duration: 0.5
    scale:
      enabled: 0
      animationType: 2
      scale: {x: 0, y: 0, z: 0}
      easeType: 0
      ease: 1
      animationCurve:
        serializedVersion: 2
        m_Curve: []
        m_PreInfinity: 2
        m_PostInfinity: 2
        m_RotationOrder: 4
      startDelay: 0
      duration: 0.5
    fade:
      enabled: 0
      animationType: 2
      alpha: 1
      easeType: 0
      ease: 1
      animationCurve:
        serializedVersion: 2
        m_Curve: []
        m_PreInfinity: 2
        m_PostInfinity: 2
        m_RotationOrder: 4
      startDelay: 0
      duration: 0.5
    moveIsExpanded:
      m_Target: 0
      speed: 2
      m_Value: 0
    rotateIsExpanded:
      m_Target: 0
      speed: 2
      m_Value: 0
    scaleIsExpanded:
      m_Target: 0
      speed: 2
      m_Value: 0
    fadeIsExpanded:
      m_Target: 0
      speed: 2
      m_Value: 0
  onLongClickGameEvents: []
  onLongClickNavigation:
    addToNavigationHistory: 0
    show: []
    hide: []
  normalLoopPresetCategory: Uncategorized
  normalLoopPresetName: DefaultPreset
  loadNormalLoopPresetAtRuntime: 0
  normalLoop:
    autoStart: 0
    move:
      enabled: 0
      movement: {x: 0, y: 0, z: 0}
      easeType: 0
      ease: 1
      animationCurve:
        serializedVersion: 2
        m_Curve: []
        m_PreInfinity: 2
        m_PostInfinity: 2
        m_RotationOrder: 4
      loops: -1
      loopType: 1
      startDelay: 0
      duration: 0.5
    rotate:
      enabled: 0
      rotation: {x: 0, y: 0, z: 0}
      easeType: 0
      ease: 1
      animationCurve:
        serializedVersion: 2
        m_Curve: []
        m_PreInfinity: 2
        m_PostInfinity: 2
        m_RotationOrder: 4
      loops: -1
      loopType: 1
      rotateMode: 0
      startDelay: 0
      duration: 0.5
    scale:
      enabled: 0
      min: {x: 1, y: 1, z: 1}
      max: {x: 1.05, y: 1.05, z: 1.05}
      easeType: 0
      ease: 1
      animationCurve:
        serializedVersion: 2
        m_Curve: []
        m_PreInfinity: 2
        m_PostInfinity: 2
        m_RotationOrder: 4
      loops: -1
      loopType: 1
      startDelay: 0
      duration: 0.5
    fade:
      enabled: 0
      min: 0
      max: 1
      easeType: 0
      ease: 1
      animationCurve:
        serializedVersion: 2
        m_Curve: []
        m_PreInfinity: 2
        m_PostInfinity: 2
        m_RotationOrder: 4
      loops: -1
      loopType: 1
      startDelay: 0
      duration: 0.5
    moveIsExpanded:
      m_Target: 0
      speed: 2
      m_Value: 0
    rotateIsExpanded:
      m_Target: 0
      speed: 2
      m_Value: 0
    scaleIsExpanded:
      m_Target: 0
      speed: 2
      m_Value: 0
    fadeIsExpanded:
      m_Target: 0
      speed: 2
      m_Value: 0
  selectedLoopPresetCategory: Uncategorized
  selectedLoopPresetName: DefaultPreset
  loadSelectedLoopPresetAtRuntime: 0
  selectedLoop:
    autoStart: 0
    move:
      enabled: 0
      movement: {x: 0, y: 0, z: 0}
      easeType: 0
      ease: 1
      animationCurve:
        serializedVersion: 2
        m_Curve: []
        m_PreInfinity: 2
        m_PostInfinity: 2
        m_RotationOrder: 4
      loops: -1
      loopType: 1
      startDelay: 0
      duration: 0.5
    rotate:
      enabled: 0
      rotation: {x: 0, y: 0, z: 0}
      easeType: 0
      ease: 1
      animationCurve:
        serializedVersion: 2
        m_Curve: []
        m_PreInfinity: 2
        m_PostInfinity: 2
        m_RotationOrder: 4
      loops: -1
      loopType: 1
      rotateMode: 0
      startDelay: 0
      duration: 0.5
    scale:
      enabled: 0
      min: {x: 1, y: 1, z: 1}
      max: {x: 1.05, y: 1.05, z: 1.05}
      easeType: 0
      ease: 1
      animationCurve:
        serializedVersion: 2
        m_Curve: []
        m_PreInfinity: 2
        m_PostInfinity: 2
        m_RotationOrder: 4
      loops: -1
      loopType: 1
      startDelay: 0
      duration: 0.5
    fade:
      enabled: 0
      min: 0
      max: 1
      easeType: 0
      ease: 1
      animationCurve:
        serializedVersion: 2
        m_Curve: []
        m_PreInfinity: 2
        m_PostInfinity: 2
        m_RotationOrder: 4
      loops: -1
      loopType: 1
      startDelay: 0
      duration: 0.5
    moveIsExpanded:
      m_Target: 0
      speed: 2
      m_Value: 0
    rotateIsExpanded:
      m_Target: 0
      speed: 2
      m_Value: 0
    scaleIsExpanded:
      m_Target: 0
      speed: 2
      m_Value: 0
    fadeIsExpanded:
      m_Target: 0
      speed: 2
      m_Value: 0
  controllerInputMode: 0
  enableAlternateInputs: 1
  onClickKeyCode: 13
  onClickKeyCodeAlt: 32
  onClickVirtualButtonName: Submit
  onClickVirtualButtonNameAlt: Jump
--- !u!1 &1348632104562656
GameObject:
  m_ObjectHideFlags: 0
  m_CorrespondingSourceObject: {fileID: 0}
  m_PrefabInstance: {fileID: 0}
  m_PrefabAsset: {fileID: 0}
  serializedVersion: 6
  m_Component:
  - component: {fileID: 224065174117190010}
  - component: {fileID: 114850775254664140}
  m_Layer: 0
  m_Name: TwoOptionsTitleUINotification
  m_TagString: Untagged
  m_Icon: {fileID: 0}
  m_NavMeshLayer: 0
  m_StaticEditorFlags: 0
  m_IsActive: 1
--- !u!224 &224065174117190010
RectTransform:
  m_ObjectHideFlags: 0
  m_CorrespondingSourceObject: {fileID: 0}
  m_PrefabInstance: {fileID: 0}
  m_PrefabAsset: {fileID: 0}
  m_GameObject: {fileID: 1348632104562656}
  m_LocalRotation: {x: 0, y: 0, z: 0, w: 1}
  m_LocalPosition: {x: 0, y: 0, z: 0}
  m_LocalScale: {x: 1, y: 1, z: 1}
  m_Children:
  - {fileID: 224765862293970358}
  - {fileID: 224777973253788046}
  m_Father: {fileID: 0}
  m_RootOrder: 0
  m_LocalEulerAnglesHint: {x: 0, y: 0, z: 0}
  m_AnchorMin: {x: 0, y: 0}
  m_AnchorMax: {x: 1, y: 1}
  m_AnchoredPosition: {x: 0, y: 0}
  m_SizeDelta: {x: 0, y: 0}
  m_Pivot: {x: 0.5, y: 0.5}
--- !u!114 &114850775254664140
MonoBehaviour:
  m_ObjectHideFlags: 0
  m_CorrespondingSourceObject: {fileID: 0}
  m_PrefabInstance: {fileID: 0}
  m_PrefabAsset: {fileID: 0}
  m_GameObject: {fileID: 1348632104562656}
  m_Enabled: 1
  m_EditorHideFlags: 0
  m_Script: {fileID: 11500000, guid: c5fda386369912b408e9466993be739d, type: 3}
  m_Name: 
  m_EditorClassIdentifier: 
  listenForBackButton: 1
  targetCanvasName: MasterCanvas
  customTargetCanvasName: 1
  notificationContainer: {fileID: 114912703239162590}
  overlay: {fileID: 114310315606046128}
  title: {fileID: 1230297528054108}
  message: {fileID: 1995706705826164}
  icon: {fileID: 0}
  buttons:
  - {fileID: 114537275302701166}
  - {fileID: 114716783395671876}
  closeButton: {fileID: 114644837546298826}
  specialElements: []
  effects: []
  data:
    targetCanvasName: MasterCanvas
    prefabName: 
    prefab: {fileID: 0}
    lifetime: 3
    addToNotificationQueue: 1
    title: 
    message: 
    icon: {fileID: 0}
    buttonNames: []
    buttonTexts: []
--- !u!1 &1449657247389156
GameObject:
  m_ObjectHideFlags: 0
  m_CorrespondingSourceObject: {fileID: 0}
  m_PrefabInstance: {fileID: 0}
  m_PrefabAsset: {fileID: 0}
  serializedVersion: 6
  m_Component:
  - component: {fileID: 224515376074389142}
  - component: {fileID: 222741083491852044}
  - component: {fileID: 114724888606320814}
  - component: {fileID: 114235083639475420}
  - component: {fileID: 114537275302701166}
  m_Layer: 5
  m_Name: Notification Button 0
  m_TagString: Untagged
  m_Icon: {fileID: 0}
  m_NavMeshLayer: 0
  m_StaticEditorFlags: 0
  m_IsActive: 1
--- !u!224 &224515376074389142
RectTransform:
  m_ObjectHideFlags: 0
  m_CorrespondingSourceObject: {fileID: 0}
  m_PrefabInstance: {fileID: 0}
  m_PrefabAsset: {fileID: 0}
  m_GameObject: {fileID: 1449657247389156}
  m_LocalRotation: {x: -0.0059701684, y: -0, z: -0, w: 0.99998224}
  m_LocalPosition: {x: 0, y: 0, z: -0.7522279}
  m_LocalScale: {x: 1, y: 1, z: 1}
  m_Children:
  - {fileID: 224877528831160042}
  m_Father: {fileID: 224875524645368128}
  m_RootOrder: 0
  m_LocalEulerAnglesHint: {x: 0, y: 0, z: 0}
  m_AnchorMin: {x: 0, y: 0.00014465673}
  m_AnchorMax: {x: 0.49184892, y: 0}
  m_AnchoredPosition: {x: 0, y: 63}
  m_SizeDelta: {x: 0, y: 126}
  m_Pivot: {x: 0.5, y: 0.5}
--- !u!222 &222741083491852044
CanvasRenderer:
  m_ObjectHideFlags: 0
  m_CorrespondingSourceObject: {fileID: 0}
  m_PrefabInstance: {fileID: 0}
  m_PrefabAsset: {fileID: 0}
  m_GameObject: {fileID: 1449657247389156}
  m_CullTransparentMesh: 0
--- !u!114 &114724888606320814
MonoBehaviour:
  m_ObjectHideFlags: 0
  m_CorrespondingSourceObject: {fileID: 0}
  m_PrefabInstance: {fileID: 0}
  m_PrefabAsset: {fileID: 0}
  m_GameObject: {fileID: 1449657247389156}
  m_Enabled: 1
  m_EditorHideFlags: 0
  m_Script: {fileID: -765806418, guid: f70555f144d8491a825f0804e09c671c, type: 3}
  m_Name: 
  m_EditorClassIdentifier: 
  m_Material: {fileID: 0}
  m_Color: {r: 1, g: 1, b: 1, a: 0}
  m_RaycastTarget: 1
  m_OnCullStateChanged:
    m_PersistentCalls:
      m_Calls: []
  m_Sprite: {fileID: 0}
  m_Type: 1
  m_PreserveAspect: 0
  m_FillCenter: 1
  m_FillMethod: 4
  m_FillAmount: 1
  m_FillClockwise: 1
  m_FillOrigin: 0
  m_UseSpriteMesh: 0
--- !u!114 &114235083639475420
MonoBehaviour:
  m_ObjectHideFlags: 0
  m_CorrespondingSourceObject: {fileID: 0}
  m_PrefabInstance: {fileID: 0}
  m_PrefabAsset: {fileID: 0}
  m_GameObject: {fileID: 1449657247389156}
  m_Enabled: 1
  m_EditorHideFlags: 0
  m_Script: {fileID: 1392445389, guid: f70555f144d8491a825f0804e09c671c, type: 3}
  m_Name: 
  m_EditorClassIdentifier: 
  m_Navigation:
    m_Mode: 3
    m_SelectOnUp: {fileID: 0}
    m_SelectOnDown: {fileID: 0}
    m_SelectOnLeft: {fileID: 0}
    m_SelectOnRight: {fileID: 0}
  m_Transition: 1
  m_Colors:
    m_NormalColor: {r: 1, g: 1, b: 1, a: 1}
    m_HighlightedColor: {r: 0.9607843, g: 0.9607843, b: 0.9607843, a: 1}
    m_PressedColor: {r: 0.78431374, g: 0.78431374, b: 0.78431374, a: 1}
    m_DisabledColor: {r: 0.78431374, g: 0.78431374, b: 0.78431374, a: 0.5019608}
    m_ColorMultiplier: 1
    m_FadeDuration: 0.1
  m_SpriteState:
    m_HighlightedSprite: {fileID: 0}
    m_PressedSprite: {fileID: 0}
    m_DisabledSprite: {fileID: 0}
  m_AnimationTriggers:
    m_NormalTrigger: Normal
    m_HighlightedTrigger: Highlighted
    m_PressedTrigger: Pressed
    m_DisabledTrigger: Disabled
  m_Interactable: 1
  m_TargetGraphic: {fileID: 114724888606320814}
  m_OnClick:
    m_PersistentCalls:
      m_Calls: []
--- !u!114 &114537275302701166
MonoBehaviour:
  m_ObjectHideFlags: 0
  m_CorrespondingSourceObject: {fileID: 0}
  m_PrefabInstance: {fileID: 0}
  m_PrefabAsset: {fileID: 0}
  m_GameObject: {fileID: 1449657247389156}
  m_Enabled: 1
  m_EditorHideFlags: 0
  m_Script: {fileID: 11500000, guid: 682849f091f20484485c3a8e6c1e0b1f, type: 3}
  m_Name: 
  m_EditorClassIdentifier: 
  debug: 0
  buttonCategory: Uncategorized
  buttonName: ~Button Name~
  allowMultipleClicks: 0
  deselectButtonOnClick: 1
  disableButtonInterval: 0.4
  useOnPointerEnter: 0
  onPointerEnterDisableInterval: 0.4
  onPointerEnterSound: ~No Sound~
  customOnPointerEnterSound: 0
  OnPointerEnter:
    m_PersistentCalls:
      m_Calls: []
  onPointerEnterAnimationType: 0
  onPointerEnterPunchPresetCategory: Uncategorized
  onPointerEnterPunchPresetName: DefaultPreset
  loadOnPointerEnterPunchPresetAtRuntime: 0
  onPointerEnterPunch:
    move:
      enabled: 0
      punch: {x: 0, y: 20, z: 0}
      startDelay: 0
      duration: 0.3
      vibrato: 4
      elasticity: 0.5
    rotate:
      enabled: 0
      punch: {x: 0, y: 0, z: 30}
      startDelay: 0
      duration: 0.3
      vibrato: 4
      elasticity: 0.5
    scale:
      enabled: 0
      punch: {x: 0.2, y: 0.2, z: 0}
      startDelay: 0
      duration: 0.3
      vibrato: 4
      elasticity: 0.5
    moveIsExpanded:
      m_Target: 0
      speed: 2
      m_Value: 0
    rotateIsExpanded:
      m_Target: 0
      speed: 2
      m_Value: 0
    scaleIsExpanded:
      m_Target: 0
      speed: 2
      m_Value: 0
  onPointerEnterStatePresetCategory: Uncategorized
  onPointerEnterStatePresetName: DefaultPreset
  loadOnPointerEnterStatePresetAtRuntime: 0
  onPointerEnterState:
    animationType: 2
    move:
      enabled: 0
      animationType: 2
      moveDirection: 0
      customPosition: {x: 0, y: 0, z: 0}
      easeType: 0
      ease: 1
      animationCurve:
        serializedVersion: 2
        m_Curve: []
        m_PreInfinity: 2
        m_PostInfinity: 2
        m_RotationOrder: 4
      startDelay: 0
      duration: 0.5
    rotate:
      enabled: 0
      animationType: 2
      rotation: {x: 0, y: 0, z: 0}
      rotateMode: 1
      easeType: 0
      ease: 1
      animationCurve:
        serializedVersion: 2
        m_Curve: []
        m_PreInfinity: 2
        m_PostInfinity: 2
        m_RotationOrder: 4
      startDelay: 0
      duration: 0.5
    scale:
      enabled: 0
      animationType: 2
      scale: {x: 0, y: 0, z: 0}
      easeType: 0
      ease: 1
      animationCurve:
        serializedVersion: 2
        m_Curve: []
        m_PreInfinity: 2
        m_PostInfinity: 2
        m_RotationOrder: 4
      startDelay: 0
      duration: 0.5
    fade:
      enabled: 0
      animationType: 2
      alpha: 1
      easeType: 0
      ease: 1
      animationCurve:
        serializedVersion: 2
        m_Curve: []
        m_PreInfinity: 2
        m_PostInfinity: 2
        m_RotationOrder: 4
      startDelay: 0
      duration: 0.5
    moveIsExpanded:
      m_Target: 0
      speed: 2
      m_Value: 0
    rotateIsExpanded:
      m_Target: 0
      speed: 2
      m_Value: 0
    scaleIsExpanded:
      m_Target: 0
      speed: 2
      m_Value: 0
    fadeIsExpanded:
      m_Target: 0
      speed: 2
      m_Value: 0
  onPointerEnterGameEvents: []
  onPointerEnterNavigation:
    addToNavigationHistory: 0
    show: []
    hide: []
  useOnPointerExit: 0
  onPointerExitDisableInterval: 0.4
  onPointerExitSound: ~No Sound~
  customOnPointerExitSound: 0
  OnPointerExit:
    m_PersistentCalls:
      m_Calls: []
  onPointerExitAnimationType: 0
  onPointerExitPunchPresetCategory: Uncategorized
  onPointerExitPunchPresetName: DefaultPreset
  loadOnPointerExitPunchPresetAtRuntime: 0
  onPointerExitPunch:
    move:
      enabled: 0
      punch: {x: 0, y: 20, z: 0}
      startDelay: 0
      duration: 0.3
      vibrato: 4
      elasticity: 0.5
    rotate:
      enabled: 0
      punch: {x: 0, y: 0, z: 30}
      startDelay: 0
      duration: 0.3
      vibrato: 4
      elasticity: 0.5
    scale:
      enabled: 0
      punch: {x: 0.2, y: 0.2, z: 0}
      startDelay: 0
      duration: 0.3
      vibrato: 4
      elasticity: 0.5
    moveIsExpanded:
      m_Target: 0
      speed: 2
      m_Value: 0
    rotateIsExpanded:
      m_Target: 0
      speed: 2
      m_Value: 0
    scaleIsExpanded:
      m_Target: 0
      speed: 2
      m_Value: 0
  onPointerExitStatePresetCategory: Uncategorized
  onPointerExitStatePresetName: DefaultPreset
  loadOnPointerExitStatePresetAtRuntime: 0
  onPointerExitState:
    animationType: 2
    move:
      enabled: 0
      animationType: 2
      moveDirection: 0
      customPosition: {x: 0, y: 0, z: 0}
      easeType: 0
      ease: 1
      animationCurve:
        serializedVersion: 2
        m_Curve: []
        m_PreInfinity: 2
        m_PostInfinity: 2
        m_RotationOrder: 4
      startDelay: 0
      duration: 0.5
    rotate:
      enabled: 0
      animationType: 2
      rotation: {x: 0, y: 0, z: 0}
      rotateMode: 1
      easeType: 0
      ease: 1
      animationCurve:
        serializedVersion: 2
        m_Curve: []
        m_PreInfinity: 2
        m_PostInfinity: 2
        m_RotationOrder: 4
      startDelay: 0
      duration: 0.5
    scale:
      enabled: 0
      animationType: 2
      scale: {x: 0, y: 0, z: 0}
      easeType: 0
      ease: 1
      animationCurve:
        serializedVersion: 2
        m_Curve: []
        m_PreInfinity: 2
        m_PostInfinity: 2
        m_RotationOrder: 4
      startDelay: 0
      duration: 0.5
    fade:
      enabled: 0
      animationType: 2
      alpha: 1
      easeType: 0
      ease: 1
      animationCurve:
        serializedVersion: 2
        m_Curve: []
        m_PreInfinity: 2
        m_PostInfinity: 2
        m_RotationOrder: 4
      startDelay: 0
      duration: 0.5
    moveIsExpanded:
      m_Target: 0
      speed: 2
      m_Value: 0
    rotateIsExpanded:
      m_Target: 0
      speed: 2
      m_Value: 0
    scaleIsExpanded:
      m_Target: 0
      speed: 2
      m_Value: 0
    fadeIsExpanded:
      m_Target: 0
      speed: 2
      m_Value: 0
  onPointerExitGameEvents: []
  onPointerExitNavigation:
    addToNavigationHistory: 0
    show: []
    hide: []
  useOnPointerDown: 0
  onPointerDownSound: ~No Sound~
  customOnPointerDownSound: 0
  OnPointerDown:
    m_PersistentCalls:
      m_Calls: []
  onPointerDownAnimationType: 0
  onPointerDownPunchPresetCategory: Uncategorized
  onPointerDownPunchPresetName: DefaultPreset
  loadOnPointerDownPunchPresetAtRuntime: 0
  onPointerDownPunch:
    move:
      enabled: 0
      punch: {x: 0, y: 20, z: 0}
      startDelay: 0
      duration: 0.3
      vibrato: 4
      elasticity: 0.5
    rotate:
      enabled: 0
      punch: {x: 0, y: 0, z: 30}
      startDelay: 0
      duration: 0.3
      vibrato: 4
      elasticity: 0.5
    scale:
      enabled: 0
      punch: {x: 0.2, y: 0.2, z: 0}
      startDelay: 0
      duration: 0.3
      vibrato: 4
      elasticity: 0.5
    moveIsExpanded:
      m_Target: 0
      speed: 2
      m_Value: 0
    rotateIsExpanded:
      m_Target: 0
      speed: 2
      m_Value: 0
    scaleIsExpanded:
      m_Target: 0
      speed: 2
      m_Value: 0
  onPointerDownStatePresetCategory: Uncategorized
  onPointerDownStatePresetName: DefaultPreset
  loadOnPointerDownStatePresetAtRuntime: 0
  onPointerDownState:
    animationType: 2
    move:
      enabled: 0
      animationType: 2
      moveDirection: 0
      customPosition: {x: 0, y: 0, z: 0}
      easeType: 0
      ease: 1
      animationCurve:
        serializedVersion: 2
        m_Curve: []
        m_PreInfinity: 2
        m_PostInfinity: 2
        m_RotationOrder: 4
      startDelay: 0
      duration: 0.5
    rotate:
      enabled: 0
      animationType: 2
      rotation: {x: 0, y: 0, z: 0}
      rotateMode: 1
      easeType: 0
      ease: 1
      animationCurve:
        serializedVersion: 2
        m_Curve: []
        m_PreInfinity: 2
        m_PostInfinity: 2
        m_RotationOrder: 4
      startDelay: 0
      duration: 0.5
    scale:
      enabled: 0
      animationType: 2
      scale: {x: 0, y: 0, z: 0}
      easeType: 0
      ease: 1
      animationCurve:
        serializedVersion: 2
        m_Curve: []
        m_PreInfinity: 2
        m_PostInfinity: 2
        m_RotationOrder: 4
      startDelay: 0
      duration: 0.5
    fade:
      enabled: 0
      animationType: 2
      alpha: 1
      easeType: 0
      ease: 1
      animationCurve:
        serializedVersion: 2
        m_Curve: []
        m_PreInfinity: 2
        m_PostInfinity: 2
        m_RotationOrder: 4
      startDelay: 0
      duration: 0.5
    moveIsExpanded:
      m_Target: 0
      speed: 2
      m_Value: 0
    rotateIsExpanded:
      m_Target: 0
      speed: 2
      m_Value: 0
    scaleIsExpanded:
      m_Target: 0
      speed: 2
      m_Value: 0
    fadeIsExpanded:
      m_Target: 0
      speed: 2
      m_Value: 0
  onPointerDownGameEvents: []
  onPointerDownNavigation:
    addToNavigationHistory: 0
    show: []
    hide: []
  useOnPointerUp: 0
  onPointerUpSound: ~No Sound~
  customOnPointerUpSound: 0
  OnPointerUp:
    m_PersistentCalls:
      m_Calls: []
  onPointerUpAnimationType: 0
  onPointerUpPunchPresetCategory: Uncategorized
  onPointerUpPunchPresetName: DefaultPreset
  loadOnPointerUpPunchPresetAtRuntime: 0
  onPointerUpPunch:
    move:
      enabled: 0
      punch: {x: 0, y: 20, z: 0}
      startDelay: 0
      duration: 0.3
      vibrato: 4
      elasticity: 0.5
    rotate:
      enabled: 0
      punch: {x: 0, y: 0, z: 30}
      startDelay: 0
      duration: 0.3
      vibrato: 4
      elasticity: 0.5
    scale:
      enabled: 0
      punch: {x: 0.2, y: 0.2, z: 0}
      startDelay: 0
      duration: 0.3
      vibrato: 4
      elasticity: 0.5
    moveIsExpanded:
      m_Target: 0
      speed: 2
      m_Value: 0
    rotateIsExpanded:
      m_Target: 0
      speed: 2
      m_Value: 0
    scaleIsExpanded:
      m_Target: 0
      speed: 2
      m_Value: 0
  onPointerUpStatePresetCategory: Uncategorized
  onPointerUpStatePresetName: DefaultPreset
  loadOnPointerUpStatePresetAtRuntime: 0
  onPointerUpState:
    animationType: 2
    move:
      enabled: 0
      animationType: 2
      moveDirection: 0
      customPosition: {x: 0, y: 0, z: 0}
      easeType: 0
      ease: 1
      animationCurve:
        serializedVersion: 2
        m_Curve: []
        m_PreInfinity: 2
        m_PostInfinity: 2
        m_RotationOrder: 4
      startDelay: 0
      duration: 0.5
    rotate:
      enabled: 0
      animationType: 2
      rotation: {x: 0, y: 0, z: 0}
      rotateMode: 1
      easeType: 0
      ease: 1
      animationCurve:
        serializedVersion: 2
        m_Curve: []
        m_PreInfinity: 2
        m_PostInfinity: 2
        m_RotationOrder: 4
      startDelay: 0
      duration: 0.5
    scale:
      enabled: 0
      animationType: 2
      scale: {x: 0, y: 0, z: 0}
      easeType: 0
      ease: 1
      animationCurve:
        serializedVersion: 2
        m_Curve: []
        m_PreInfinity: 2
        m_PostInfinity: 2
        m_RotationOrder: 4
      startDelay: 0
      duration: 0.5
    fade:
      enabled: 0
      animationType: 2
      alpha: 1
      easeType: 0
      ease: 1
      animationCurve:
        serializedVersion: 2
        m_Curve: []
        m_PreInfinity: 2
        m_PostInfinity: 2
        m_RotationOrder: 4
      startDelay: 0
      duration: 0.5
    moveIsExpanded:
      m_Target: 0
      speed: 2
      m_Value: 0
    rotateIsExpanded:
      m_Target: 0
      speed: 2
      m_Value: 0
    scaleIsExpanded:
      m_Target: 0
      speed: 2
      m_Value: 0
    fadeIsExpanded:
      m_Target: 0
      speed: 2
      m_Value: 0
  onPointerUpGameEvents: []
  onPointerUpNavigation:
    addToNavigationHistory: 0
    show: []
    hide: []
  useOnClickAnimations: 1
  waitForOnClickAnimation: 1
  singleClickMode: 0
  onClickSound: ~No Sound~
  customOnClickSound: 0
  OnClick:
    m_PersistentCalls:
      m_Calls: []
  onClickAnimationType: 0
  onClickPunchPresetCategory: Uncategorized
  onClickPunchPresetName: DefaultPreset
  loadOnClickPunchPresetAtRuntime: 0
  onClickPunch:
    move:
      enabled: 0
      punch: {x: 0, y: 20, z: 0}
      startDelay: 0
      duration: 0.3
      vibrato: 4
      elasticity: 0.5
    rotate:
      enabled: 0
      punch: {x: 0, y: 0, z: 30}
      startDelay: 0
      duration: 0.3
      vibrato: 4
      elasticity: 0.5
    scale:
      enabled: 0
      punch: {x: 0.2, y: 0.2, z: 0}
      startDelay: 0
      duration: 0.3
      vibrato: 4
      elasticity: 0.5
    moveIsExpanded:
      m_Target: 0
      speed: 2
      m_Value: 0
    rotateIsExpanded:
      m_Target: 0
      speed: 2
      m_Value: 0
    scaleIsExpanded:
      m_Target: 0
      speed: 2
      m_Value: 0
  onClickStatePresetCategory: Uncategorized
  onClickStatePresetName: DefaultPreset
  loadOnClickStatePresetAtRuntime: 0
  onClickState:
    animationType: 2
    move:
      enabled: 0
      animationType: 2
      moveDirection: 0
      customPosition: {x: 0, y: 0, z: 0}
      easeType: 0
      ease: 1
      animationCurve:
        serializedVersion: 2
        m_Curve: []
        m_PreInfinity: 2
        m_PostInfinity: 2
        m_RotationOrder: 4
      startDelay: 0
      duration: 0.5
    rotate:
      enabled: 0
      animationType: 2
      rotation: {x: 0, y: 0, z: 0}
      rotateMode: 1
      easeType: 0
      ease: 1
      animationCurve:
        serializedVersion: 2
        m_Curve: []
        m_PreInfinity: 2
        m_PostInfinity: 2
        m_RotationOrder: 4
      startDelay: 0
      duration: 0.5
    scale:
      enabled: 0
      animationType: 2
      scale: {x: 0, y: 0, z: 0}
      easeType: 0
      ease: 1
      animationCurve:
        serializedVersion: 2
        m_Curve: []
        m_PreInfinity: 2
        m_PostInfinity: 2
        m_RotationOrder: 4
      startDelay: 0
      duration: 0.5
    fade:
      enabled: 0
      animationType: 2
      alpha: 1
      easeType: 0
      ease: 1
      animationCurve:
        serializedVersion: 2
        m_Curve: []
        m_PreInfinity: 2
        m_PostInfinity: 2
        m_RotationOrder: 4
      startDelay: 0
      duration: 0.5
    moveIsExpanded:
      m_Target: 0
      speed: 2
      m_Value: 0
    rotateIsExpanded:
      m_Target: 0
      speed: 2
      m_Value: 0
    scaleIsExpanded:
      m_Target: 0
      speed: 2
      m_Value: 0
    fadeIsExpanded:
      m_Target: 0
      speed: 2
      m_Value: 0
  onClickGameEvents: []
  onClickNavigation:
    addToNavigationHistory: 0
    show: []
    hide: []
  useOnDoubleClick: 0
  waitForOnDoubleClickAnimation: 1
  doubleClickRegisterInterval: 0.2
  onDoubleClickSound: ~No Sound~
  customOnDoubleClickSound: 0
  OnDoubleClick:
    m_PersistentCalls:
      m_Calls: []
  onDoubleClickAnimationType: 0
  onDoubleClickPunchPresetCategory: Uncategorized
  onDoubleClickPunchPresetName: DefaultPreset
  loadOnDoubleClickPunchPresetAtRuntime: 0
  onDoubleClickPunch:
    move:
      enabled: 0
      punch: {x: 0, y: 20, z: 0}
      startDelay: 0
      duration: 0.3
      vibrato: 4
      elasticity: 0.5
    rotate:
      enabled: 0
      punch: {x: 0, y: 0, z: 30}
      startDelay: 0
      duration: 0.3
      vibrato: 4
      elasticity: 0.5
    scale:
      enabled: 0
      punch: {x: 0.2, y: 0.2, z: 0}
      startDelay: 0
      duration: 0.3
      vibrato: 4
      elasticity: 0.5
    moveIsExpanded:
      m_Target: 0
      speed: 2
      m_Value: 0
    rotateIsExpanded:
      m_Target: 0
      speed: 2
      m_Value: 0
    scaleIsExpanded:
      m_Target: 0
      speed: 2
      m_Value: 0
  onDoubleClickStatePresetCategory: Uncategorized
  onDoubleClickStatePresetName: DefaultPreset
  loadOnDoubleClickStatePresetAtRuntime: 0
  onDoubleClickState:
    animationType: 2
    move:
      enabled: 0
      animationType: 2
      moveDirection: 0
      customPosition: {x: 0, y: 0, z: 0}
      easeType: 0
      ease: 1
      animationCurve:
        serializedVersion: 2
        m_Curve: []
        m_PreInfinity: 2
        m_PostInfinity: 2
        m_RotationOrder: 4
      startDelay: 0
      duration: 0.5
    rotate:
      enabled: 0
      animationType: 2
      rotation: {x: 0, y: 0, z: 0}
      rotateMode: 1
      easeType: 0
      ease: 1
      animationCurve:
        serializedVersion: 2
        m_Curve: []
        m_PreInfinity: 2
        m_PostInfinity: 2
        m_RotationOrder: 4
      startDelay: 0
      duration: 0.5
    scale:
      enabled: 0
      animationType: 2
      scale: {x: 0, y: 0, z: 0}
      easeType: 0
      ease: 1
      animationCurve:
        serializedVersion: 2
        m_Curve: []
        m_PreInfinity: 2
        m_PostInfinity: 2
        m_RotationOrder: 4
      startDelay: 0
      duration: 0.5
    fade:
      enabled: 0
      animationType: 2
      alpha: 1
      easeType: 0
      ease: 1
      animationCurve:
        serializedVersion: 2
        m_Curve: []
        m_PreInfinity: 2
        m_PostInfinity: 2
        m_RotationOrder: 4
      startDelay: 0
      duration: 0.5
    moveIsExpanded:
      m_Target: 0
      speed: 2
      m_Value: 0
    rotateIsExpanded:
      m_Target: 0
      speed: 2
      m_Value: 0
    scaleIsExpanded:
      m_Target: 0
      speed: 2
      m_Value: 0
    fadeIsExpanded:
      m_Target: 0
      speed: 2
      m_Value: 0
  onDoubleClickGameEvents: []
  onDoubleClickNavigation:
    addToNavigationHistory: 0
    show: []
    hide: []
  useOnLongClick: 0
  waitForOnLongClickAnimation: 1
  longClickRegisterInterval: 0.5
  onLongClickSound: ~No Sound~
  customOnLongClickSound: 0
  OnLongClick:
    m_PersistentCalls:
      m_Calls: []
  onLongClickAnimationType: 0
  onLongClickPunchPresetCategory: Uncategorized
  onLongClickPunchPresetName: DefaultPreset
  loadOnLongClickPunchPresetAtRuntime: 0
  onLongClickPunch:
    move:
      enabled: 0
      punch: {x: 0, y: 20, z: 0}
      startDelay: 0
      duration: 0.3
      vibrato: 4
      elasticity: 0.5
    rotate:
      enabled: 0
      punch: {x: 0, y: 0, z: 30}
      startDelay: 0
      duration: 0.3
      vibrato: 4
      elasticity: 0.5
    scale:
      enabled: 0
      punch: {x: 0.2, y: 0.2, z: 0}
      startDelay: 0
      duration: 0.3
      vibrato: 4
      elasticity: 0.5
    moveIsExpanded:
      m_Target: 0
      speed: 2
      m_Value: 0
    rotateIsExpanded:
      m_Target: 0
      speed: 2
      m_Value: 0
    scaleIsExpanded:
      m_Target: 0
      speed: 2
      m_Value: 0
  onLongClickStatePresetCategory: Uncategorized
  onLongClickStatePresetName: DefaultPreset
  loadOnLongClickStatePresetAtRuntime: 0
  onLongClickState:
    animationType: 2
    move:
      enabled: 0
      animationType: 2
      moveDirection: 0
      customPosition: {x: 0, y: 0, z: 0}
      easeType: 0
      ease: 1
      animationCurve:
        serializedVersion: 2
        m_Curve: []
        m_PreInfinity: 2
        m_PostInfinity: 2
        m_RotationOrder: 4
      startDelay: 0
      duration: 0.5
    rotate:
      enabled: 0
      animationType: 2
      rotation: {x: 0, y: 0, z: 0}
      rotateMode: 1
      easeType: 0
      ease: 1
      animationCurve:
        serializedVersion: 2
        m_Curve: []
        m_PreInfinity: 2
        m_PostInfinity: 2
        m_RotationOrder: 4
      startDelay: 0
      duration: 0.5
    scale:
      enabled: 0
      animationType: 2
      scale: {x: 0, y: 0, z: 0}
      easeType: 0
      ease: 1
      animationCurve:
        serializedVersion: 2
        m_Curve: []
        m_PreInfinity: 2
        m_PostInfinity: 2
        m_RotationOrder: 4
      startDelay: 0
      duration: 0.5
    fade:
      enabled: 0
      animationType: 2
      alpha: 1
      easeType: 0
      ease: 1
      animationCurve:
        serializedVersion: 2
        m_Curve: []
        m_PreInfinity: 2
        m_PostInfinity: 2
        m_RotationOrder: 4
      startDelay: 0
      duration: 0.5
    moveIsExpanded:
      m_Target: 0
      speed: 2
      m_Value: 0
    rotateIsExpanded:
      m_Target: 0
      speed: 2
      m_Value: 0
    scaleIsExpanded:
      m_Target: 0
      speed: 2
      m_Value: 0
    fadeIsExpanded:
      m_Target: 0
      speed: 2
      m_Value: 0
  onLongClickGameEvents: []
  onLongClickNavigation:
    addToNavigationHistory: 0
    show: []
    hide: []
  normalLoopPresetCategory: Uncategorized
  normalLoopPresetName: DefaultPreset
  loadNormalLoopPresetAtRuntime: 0
  normalLoop:
    autoStart: 0
    move:
      enabled: 0
      movement: {x: 0, y: 0, z: 0}
      easeType: 0
      ease: 1
      animationCurve:
        serializedVersion: 2
        m_Curve: []
        m_PreInfinity: 2
        m_PostInfinity: 2
        m_RotationOrder: 4
      loops: -1
      loopType: 1
      startDelay: 0
      duration: 0.5
    rotate:
      enabled: 0
      rotation: {x: 0, y: 0, z: 0}
      easeType: 0
      ease: 1
      animationCurve:
        serializedVersion: 2
        m_Curve: []
        m_PreInfinity: 2
        m_PostInfinity: 2
        m_RotationOrder: 4
      loops: -1
      loopType: 1
      rotateMode: 0
      startDelay: 0
      duration: 0.5
    scale:
      enabled: 0
      min: {x: 1, y: 1, z: 1}
      max: {x: 1.05, y: 1.05, z: 1.05}
      easeType: 0
      ease: 1
      animationCurve:
        serializedVersion: 2
        m_Curve: []
        m_PreInfinity: 2
        m_PostInfinity: 2
        m_RotationOrder: 4
      loops: -1
      loopType: 1
      startDelay: 0
      duration: 0.5
    fade:
      enabled: 0
      min: 0
      max: 1
      easeType: 0
      ease: 1
      animationCurve:
        serializedVersion: 2
        m_Curve: []
        m_PreInfinity: 2
        m_PostInfinity: 2
        m_RotationOrder: 4
      loops: -1
      loopType: 1
      startDelay: 0
      duration: 0.5
    moveIsExpanded:
      m_Target: 0
      speed: 2
      m_Value: 0
    rotateIsExpanded:
      m_Target: 0
      speed: 2
      m_Value: 0
    scaleIsExpanded:
      m_Target: 0
      speed: 2
      m_Value: 0
    fadeIsExpanded:
      m_Target: 0
      speed: 2
      m_Value: 0
  selectedLoopPresetCategory: Uncategorized
  selectedLoopPresetName: DefaultPreset
  loadSelectedLoopPresetAtRuntime: 0
  selectedLoop:
    autoStart: 0
    move:
      enabled: 0
      movement: {x: 0, y: 0, z: 0}
      easeType: 0
      ease: 1
      animationCurve:
        serializedVersion: 2
        m_Curve: []
        m_PreInfinity: 2
        m_PostInfinity: 2
        m_RotationOrder: 4
      loops: -1
      loopType: 1
      startDelay: 0
      duration: 0.5
    rotate:
      enabled: 0
      rotation: {x: 0, y: 0, z: 0}
      easeType: 0
      ease: 1
      animationCurve:
        serializedVersion: 2
        m_Curve: []
        m_PreInfinity: 2
        m_PostInfinity: 2
        m_RotationOrder: 4
      loops: -1
      loopType: 1
      rotateMode: 0
      startDelay: 0
      duration: 0.5
    scale:
      enabled: 0
      min: {x: 1, y: 1, z: 1}
      max: {x: 1.05, y: 1.05, z: 1.05}
      easeType: 0
      ease: 1
      animationCurve:
        serializedVersion: 2
        m_Curve: []
        m_PreInfinity: 2
        m_PostInfinity: 2
        m_RotationOrder: 4
      loops: -1
      loopType: 1
      startDelay: 0
      duration: 0.5
    fade:
      enabled: 0
      min: 0
      max: 1
      easeType: 0
      ease: 1
      animationCurve:
        serializedVersion: 2
        m_Curve: []
        m_PreInfinity: 2
        m_PostInfinity: 2
        m_RotationOrder: 4
      loops: -1
      loopType: 1
      startDelay: 0
      duration: 0.5
    moveIsExpanded:
      m_Target: 0
      speed: 2
      m_Value: 0
    rotateIsExpanded:
      m_Target: 0
      speed: 2
      m_Value: 0
    scaleIsExpanded:
      m_Target: 0
      speed: 2
      m_Value: 0
    fadeIsExpanded:
      m_Target: 0
      speed: 2
      m_Value: 0
  controllerInputMode: 0
  enableAlternateInputs: 1
  onClickKeyCode: 13
  onClickKeyCodeAlt: 32
  onClickVirtualButtonName: Submit
  onClickVirtualButtonNameAlt: Jump
--- !u!1 &1527049485043482
GameObject:
  m_ObjectHideFlags: 0
  m_CorrespondingSourceObject: {fileID: 0}
  m_PrefabInstance: {fileID: 0}
  m_PrefabAsset: {fileID: 0}
  serializedVersion: 6
  m_Component:
  - component: {fileID: 224192901006554340}
  - component: {fileID: 222659303942277338}
  - component: {fileID: 114583610632958646}
  - component: {fileID: 114395316715016750}
  m_Layer: 5
  m_Name: TopSeparatorImage
  m_TagString: Untagged
  m_Icon: {fileID: 0}
  m_NavMeshLayer: 0
  m_StaticEditorFlags: 0
  m_IsActive: 1
--- !u!224 &224192901006554340
RectTransform:
  m_ObjectHideFlags: 0
  m_CorrespondingSourceObject: {fileID: 0}
  m_PrefabInstance: {fileID: 0}
  m_PrefabAsset: {fileID: 0}
  m_GameObject: {fileID: 1527049485043482}
  m_LocalRotation: {x: -0.0059701684, y: -0, z: -0, w: 0.99998224}
  m_LocalPosition: {x: 0, y: 0, z: -1.5044558}
  m_LocalScale: {x: 1, y: 1, z: 1}
  m_Children: []
  m_Father: {fileID: 224875524645368128}
  m_RootOrder: 3
  m_LocalEulerAnglesHint: {x: 0, y: 0, z: 0}
  m_AnchorMin: {x: 0, y: 0}
  m_AnchorMax: {x: 1, y: 0}
  m_AnchoredPosition: {x: 0, y: 126.091}
  m_SizeDelta: {x: 0, y: 2}
  m_Pivot: {x: 0.5, y: 1}
--- !u!222 &222659303942277338
CanvasRenderer:
  m_ObjectHideFlags: 0
  m_CorrespondingSourceObject: {fileID: 0}
  m_PrefabInstance: {fileID: 0}
  m_PrefabAsset: {fileID: 0}
  m_GameObject: {fileID: 1527049485043482}
  m_CullTransparentMesh: 0
--- !u!114 &114583610632958646
MonoBehaviour:
  m_ObjectHideFlags: 0
  m_CorrespondingSourceObject: {fileID: 0}
  m_PrefabInstance: {fileID: 0}
  m_PrefabAsset: {fileID: 0}
  m_GameObject: {fileID: 1527049485043482}
  m_Enabled: 1
  m_EditorHideFlags: 0
  m_Script: {fileID: -765806418, guid: f70555f144d8491a825f0804e09c671c, type: 3}
  m_Name: 
  m_EditorClassIdentifier: 
  m_Material: {fileID: 0}
  m_Color: {r: 0.6320754, g: 0.6320754, b: 0.6320754, a: 1}
  m_RaycastTarget: 0
  m_OnCullStateChanged:
    m_PersistentCalls:
      m_Calls: []
  m_Sprite: {fileID: 0}
  m_Type: 0
  m_PreserveAspect: 0
  m_FillCenter: 1
  m_FillMethod: 4
  m_FillAmount: 1
  m_FillClockwise: 1
  m_FillOrigin: 0
  m_UseSpriteMesh: 0
--- !u!114 &114395316715016750
MonoBehaviour:
  m_ObjectHideFlags: 0
  m_CorrespondingSourceObject: {fileID: 0}
  m_PrefabInstance: {fileID: 0}
  m_PrefabAsset: {fileID: 0}
  m_GameObject: {fileID: 1527049485043482}
  m_Enabled: 1
  m_EditorHideFlags: 0
  m_Script: {fileID: 1679637790, guid: f70555f144d8491a825f0804e09c671c, type: 3}
  m_Name: 
  m_EditorClassIdentifier: 
  m_IgnoreLayout: 1
  m_MinWidth: -1
  m_MinHeight: -1
  m_PreferredWidth: -1
  m_PreferredHeight: -1
  m_FlexibleWidth: -1
  m_FlexibleHeight: -1
  m_LayoutPriority: 1
--- !u!1 &1539051884746760
GameObject:
  m_ObjectHideFlags: 0
  m_CorrespondingSourceObject: {fileID: 0}
  m_PrefabInstance: {fileID: 0}
  m_PrefabAsset: {fileID: 0}
  serializedVersion: 6
  m_Component:
  - component: {fileID: 224829080101277228}
  - component: {fileID: 222989226421650860}
  - component: {fileID: 114072589416697058}
  m_Layer: 5
  m_Name: Text
  m_TagString: Untagged
  m_Icon: {fileID: 0}
  m_NavMeshLayer: 0
  m_StaticEditorFlags: 0
  m_IsActive: 1
--- !u!224 &224829080101277228
RectTransform:
  m_ObjectHideFlags: 0
  m_CorrespondingSourceObject: {fileID: 0}
  m_PrefabInstance: {fileID: 0}
  m_PrefabAsset: {fileID: 0}
  m_GameObject: {fileID: 1539051884746760}
  m_LocalRotation: {x: 0, y: 0, z: 0, w: 1}
  m_LocalPosition: {x: 0, y: 0, z: 0}
  m_LocalScale: {x: 1, y: 1, z: 1}
  m_Children: []
  m_Father: {fileID: 224435193430412496}
  m_RootOrder: 0
  m_LocalEulerAnglesHint: {x: 0, y: 0, z: 0}
  m_AnchorMin: {x: 0, y: 0}
  m_AnchorMax: {x: 1, y: 1}
  m_AnchoredPosition: {x: 0, y: 0}
  m_SizeDelta: {x: 0, y: 0}
  m_Pivot: {x: 0.5, y: 0.5}
--- !u!222 &222989226421650860
CanvasRenderer:
  m_ObjectHideFlags: 0
  m_CorrespondingSourceObject: {fileID: 0}
  m_PrefabInstance: {fileID: 0}
  m_PrefabAsset: {fileID: 0}
  m_GameObject: {fileID: 1539051884746760}
  m_CullTransparentMesh: 0
--- !u!114 &114072589416697058
MonoBehaviour:
  m_ObjectHideFlags: 0
  m_CorrespondingSourceObject: {fileID: 0}
  m_PrefabInstance: {fileID: 0}
  m_PrefabAsset: {fileID: 0}
  m_GameObject: {fileID: 1539051884746760}
  m_Enabled: 1
  m_EditorHideFlags: 0
  m_Script: {fileID: 708705254, guid: f70555f144d8491a825f0804e09c671c, type: 3}
  m_Name: 
  m_EditorClassIdentifier: 
  m_Material: {fileID: 0}
  m_Color: {r: 0, g: 0.47843137, b: 1, a: 1}
  m_RaycastTarget: 0
  m_OnCullStateChanged:
    m_PersistentCalls:
      m_Calls: []
  m_FontData:
    m_Font: {fileID: 12800000, guid: f841c671835a244959b7f6d4a910e729, type: 3}
    m_FontSize: 42
    m_FontStyle: 0
    m_BestFit: 0
    m_MinSize: 4
    m_MaxSize: 43
    m_Alignment: 4
    m_AlignByGeometry: 0
    m_RichText: 1
    m_HorizontalOverflow: 1
    m_VerticalOverflow: 0
    m_LineSpacing: 1
  m_Text: Completed
--- !u!1 &1633416943779196
GameObject:
  m_ObjectHideFlags: 0
  m_CorrespondingSourceObject: {fileID: 0}
  m_PrefabInstance: {fileID: 0}
  m_PrefabAsset: {fileID: 0}
  serializedVersion: 6
  m_Component:
  - component: {fileID: 224765862293970358}
  - component: {fileID: 223345918235879700}
  - component: {fileID: 225208923687962252}
  - component: {fileID: 114697135067166890}
  - component: {fileID: 114310315606046128}
  m_Layer: 0
  m_Name: UIE - Notification Container
  m_TagString: Untagged
  m_Icon: {fileID: 0}
  m_NavMeshLayer: 0
  m_StaticEditorFlags: 0
  m_IsActive: 1
--- !u!224 &224765862293970358
RectTransform:
  m_ObjectHideFlags: 0
  m_CorrespondingSourceObject: {fileID: 0}
  m_PrefabInstance: {fileID: 0}
  m_PrefabAsset: {fileID: 0}
  m_GameObject: {fileID: 1633416943779196}
  m_LocalRotation: {x: 0, y: 0, z: 0, w: 1}
  m_LocalPosition: {x: 0, y: 0, z: 0}
  m_LocalScale: {x: 1, y: 1, z: 1}
  m_Children:
  - {fileID: 224912172881473094}
  m_Father: {fileID: 224065174117190010}
  m_RootOrder: 0
  m_LocalEulerAnglesHint: {x: 0, y: 0, z: 0}
  m_AnchorMin: {x: 0, y: 0}
  m_AnchorMax: {x: 1, y: 1}
  m_AnchoredPosition: {x: 0, y: 0}
  m_SizeDelta: {x: 0, y: 0}
  m_Pivot: {x: 0.5, y: 0.5}
--- !u!223 &223345918235879700
Canvas:
  m_ObjectHideFlags: 0
  m_CorrespondingSourceObject: {fileID: 0}
  m_PrefabInstance: {fileID: 0}
  m_PrefabAsset: {fileID: 0}
  m_GameObject: {fileID: 1633416943779196}
  m_Enabled: 1
  serializedVersion: 3
  m_RenderMode: 2
  m_Camera: {fileID: 0}
  m_PlaneDistance: 100
  m_PixelPerfect: 0
  m_ReceivesEvents: 1
  m_OverrideSorting: 1
  m_OverridePixelPerfect: 0
  m_SortingBucketNormalizedSize: 0
  m_AdditionalShaderChannelsFlag: 0
  m_SortingLayerID: 0
  m_SortingOrder: 999
  m_TargetDisplay: 0
--- !u!225 &225208923687962252
CanvasGroup:
  m_ObjectHideFlags: 0
  m_CorrespondingSourceObject: {fileID: 0}
  m_PrefabInstance: {fileID: 0}
  m_PrefabAsset: {fileID: 0}
  m_GameObject: {fileID: 1633416943779196}
  m_Enabled: 1
  m_Alpha: 1
  m_Interactable: 1
  m_BlocksRaycasts: 1
  m_IgnoreParentGroups: 0
--- !u!114 &114697135067166890
MonoBehaviour:
  m_ObjectHideFlags: 0
  m_CorrespondingSourceObject: {fileID: 0}
  m_PrefabInstance: {fileID: 0}
  m_PrefabAsset: {fileID: 0}
  m_GameObject: {fileID: 1633416943779196}
  m_Enabled: 1
  m_EditorHideFlags: 0
  m_Script: {fileID: 1301386320, guid: f70555f144d8491a825f0804e09c671c, type: 3}
  m_Name: 
  m_EditorClassIdentifier: 
  m_IgnoreReversedGraphics: 1
  m_BlockingObjects: 0
  m_BlockingMask:
    serializedVersion: 2
    m_Bits: 4294967295
--- !u!114 &114310315606046128
MonoBehaviour:
  m_ObjectHideFlags: 0
  m_CorrespondingSourceObject: {fileID: 0}
  m_PrefabInstance: {fileID: 0}
  m_PrefabAsset: {fileID: 0}
  m_GameObject: {fileID: 1633416943779196}
  m_Enabled: 1
  m_EditorHideFlags: 0
  m_Script: {fileID: 11500000, guid: abb5c4702c7d6e344b9832a97ae1264d, type: 3}
  m_Name: 
  m_EditorClassIdentifier: 
  elementCategory: Uncategorized
  elementName: TwoOptionsTitleUINotification (-1238806)
  LANDSCAPE: 1
  PORTRAIT: 1
  startHidden: 1
  animateAtStart: 0
  disableWhenHidden: 0
  dontDisableCanvasWhenHidden: 0
  disableGraphicRaycaster: 0
  autoHide: 0
  autoHideDelay: 3
  useCustomStartAnchoredPosition: 0
  customStartAnchoredPosition: {x: 0, y: 0, z: 0}
  executeLayoutFix: 0
  deselectAnySelectedButtonOnShow: 0
  deselectAnySelectedButtonOnHide: 0
  enableAutoSelectButtonAfterShow: 1
  selectedButton: {fileID: 0}
  linkedToNotification: 1
  autoRegister: 0
  isVisible: 1
  inAnimations:
    animationType: 0
    move:
      enabled: 0
      animationType: 0
      moveDirection: 0
      customPosition: {x: 0, y: 0, z: 0}
      easeType: 0
      ease: 1
      animationCurve:
        serializedVersion: 2
        m_Curve: []
        m_PreInfinity: 2
        m_PostInfinity: 2
        m_RotationOrder: 4
      startDelay: 0
      duration: 0.5
    rotate:
      enabled: 0
      animationType: 0
      rotation: {x: 0, y: 0, z: 0}
      rotateMode: 1
      easeType: 0
      ease: 1
      animationCurve:
        serializedVersion: 2
        m_Curve: []
        m_PreInfinity: 2
        m_PostInfinity: 2
        m_RotationOrder: 4
      startDelay: 0
      duration: 0.5
    scale:
      enabled: 0
      animationType: 0
      scale: {x: 0, y: 0, z: 0}
      easeType: 0
      ease: 1
      animationCurve:
        serializedVersion: 2
        m_Curve: []
        m_PreInfinity: 2
        m_PostInfinity: 2
        m_RotationOrder: 4
      startDelay: 0
      duration: 0.5
    fade:
      enabled: 0
      animationType: 0
      alpha: 1
      easeType: 0
      ease: 1
      animationCurve:
        serializedVersion: 2
        m_Curve: []
        m_PreInfinity: 2
        m_PostInfinity: 2
        m_RotationOrder: 4
      startDelay: 0
      duration: 0.5
    moveIsExpanded:
      m_Target: 0
      speed: 2
      m_Value: 0
    rotateIsExpanded:
      m_Target: 0
      speed: 2
      m_Value: 0
    scaleIsExpanded:
      m_Target: 0
      speed: 2
      m_Value: 0
    fadeIsExpanded:
      m_Target: 0
      speed: 2
      m_Value: 0
  OnInAnimationsStart:
    m_PersistentCalls:
      m_Calls: []
  OnInAnimationsFinish:
    m_PersistentCalls:
      m_Calls: []
  inAnimationsPresetCategoryName: Fade
  inAnimationsPresetName: InFast
  loadInAnimationsPresetAtRuntime: 1
  inAnimationsSoundAtStart: ~No Sound~
  customInAnimationsSoundAtStart: 0
  inAnimationsSoundAtFinish: ~No Sound~
  customInAnimationsSoundAtFinish: 0
  outAnimations:
    animationType: 1
    move:
      enabled: 0
      animationType: 1
      moveDirection: 0
      customPosition: {x: 0, y: 0, z: 0}
      easeType: 0
      ease: 1
      animationCurve:
        serializedVersion: 2
        m_Curve: []
        m_PreInfinity: 2
        m_PostInfinity: 2
        m_RotationOrder: 4
      startDelay: 0
      duration: 0.5
    rotate:
      enabled: 0
      animationType: 1
      rotation: {x: 0, y: 0, z: 0}
      rotateMode: 1
      easeType: 0
      ease: 1
      animationCurve:
        serializedVersion: 2
        m_Curve: []
        m_PreInfinity: 2
        m_PostInfinity: 2
        m_RotationOrder: 4
      startDelay: 0
      duration: 0.5
    scale:
      enabled: 0
      animationType: 1
      scale: {x: 0, y: 0, z: 0}
      easeType: 0
      ease: 1
      animationCurve:
        serializedVersion: 2
        m_Curve: []
        m_PreInfinity: 2
        m_PostInfinity: 2
        m_RotationOrder: 4
      startDelay: 0
      duration: 0.5
    fade:
      enabled: 0
      animationType: 1
      alpha: 1
      easeType: 0
      ease: 1
      animationCurve:
        serializedVersion: 2
        m_Curve: []
        m_PreInfinity: 2
        m_PostInfinity: 2
        m_RotationOrder: 4
      startDelay: 0
      duration: 0.5
    moveIsExpanded:
      m_Target: 0
      speed: 2
      m_Value: 0
    rotateIsExpanded:
      m_Target: 0
      speed: 2
      m_Value: 0
    scaleIsExpanded:
      m_Target: 0
      speed: 2
      m_Value: 0
    fadeIsExpanded:
      m_Target: 0
      speed: 2
      m_Value: 0
  OnOutAnimationsStart:
    m_PersistentCalls:
      m_Calls: []
  OnOutAnimationsFinish:
    m_PersistentCalls:
      m_Calls: []
  outAnimationsPresetCategoryName: Fade
  outAnimationsPresetName: OutFast
  loadOutAnimationsPresetAtRuntime: 1
  outAnimationsSoundAtStart: ~No Sound~
  customOutAnimationsSoundAtStart: 0
  outAnimationsSoundAtFinish: ~No Sound~
  customOutAnimationsSoundAtFinish: 0
  loopAnimations:
    autoStart: 0
    move:
      enabled: 0
      movement: {x: 0, y: 0, z: 0}
      easeType: 0
      ease: 1
      animationCurve:
        serializedVersion: 2
        m_Curve: []
        m_PreInfinity: 2
        m_PostInfinity: 2
        m_RotationOrder: 4
      loops: -1
      loopType: 1
      startDelay: 0
      duration: 0.5
    rotate:
      enabled: 0
      rotation: {x: 0, y: 0, z: 0}
      easeType: 0
      ease: 1
      animationCurve:
        serializedVersion: 2
        m_Curve: []
        m_PreInfinity: 2
        m_PostInfinity: 2
        m_RotationOrder: 4
      loops: -1
      loopType: 1
      rotateMode: 0
      startDelay: 0
      duration: 0.5
    scale:
      enabled: 0
      min: {x: 1, y: 1, z: 1}
      max: {x: 1.05, y: 1.05, z: 1.05}
      easeType: 0
      ease: 1
      animationCurve:
        serializedVersion: 2
        m_Curve: []
        m_PreInfinity: 2
        m_PostInfinity: 2
        m_RotationOrder: 4
      loops: -1
      loopType: 1
      startDelay: 0
      duration: 0.5
    fade:
      enabled: 0
      min: 0
      max: 1
      easeType: 0
      ease: 1
      animationCurve:
        serializedVersion: 2
        m_Curve: []
        m_PreInfinity: 2
        m_PostInfinity: 2
        m_RotationOrder: 4
      loops: -1
      loopType: 1
      startDelay: 0
      duration: 0.5
    moveIsExpanded:
      m_Target: 0
      speed: 2
      m_Value: 0
    rotateIsExpanded:
      m_Target: 0
      speed: 2
      m_Value: 0
    scaleIsExpanded:
      m_Target: 0
      speed: 2
      m_Value: 0
    fadeIsExpanded:
      m_Target: 0
      speed: 2
      m_Value: 0
  loopAnimationsPresetCategoryName: Uncategorized
  loopAnimationsPresetName: DefaultPreset
  loadLoopAnimationsPresetAtRuntime: 0
--- !u!1 &1754934573731824
GameObject:
  m_ObjectHideFlags: 0
  m_CorrespondingSourceObject: {fileID: 0}
  m_PrefabInstance: {fileID: 0}
  m_PrefabAsset: {fileID: 0}
  serializedVersion: 6
  m_Component:
  - component: {fileID: 224875524645368128}
  - component: {fileID: 222089083873845472}
  - component: {fileID: 114614397263926700}
  - component: {fileID: 114844829394665936}
  - component: {fileID: 963674598}
  m_Layer: 0
  m_Name: Background
  m_TagString: Untagged
  m_Icon: {fileID: 0}
  m_NavMeshLayer: 0
  m_StaticEditorFlags: 0
  m_IsActive: 1
--- !u!224 &224875524645368128
RectTransform:
  m_ObjectHideFlags: 0
  m_CorrespondingSourceObject: {fileID: 0}
  m_PrefabInstance: {fileID: 0}
  m_PrefabAsset: {fileID: 0}
  m_GameObject: {fileID: 1754934573731824}
  m_LocalRotation: {x: 0, y: 0, z: 0, w: 1}
  m_LocalPosition: {x: 0, y: 0, z: 0}
  m_LocalScale: {x: 1, y: 1, z: 1}
  m_Children:
  - {fileID: 224515376074389142}
  - {fileID: 224231311457250648}
  - {fileID: 224435193430412496}
  - {fileID: 224192901006554340}
  m_Father: {fileID: 224777973253788046}
  m_RootOrder: 0
  m_LocalEulerAnglesHint: {x: 0, y: 0, z: 0}
  m_AnchorMin: {x: 0, y: 0}
  m_AnchorMax: {x: 1, y: 1}
  m_AnchoredPosition: {x: 0, y: 0}
  m_SizeDelta: {x: 0, y: 0}
  m_Pivot: {x: 0.5, y: 0.5}
--- !u!222 &222089083873845472
CanvasRenderer:
  m_ObjectHideFlags: 0
  m_CorrespondingSourceObject: {fileID: 0}
  m_PrefabInstance: {fileID: 0}
  m_PrefabAsset: {fileID: 0}
  m_GameObject: {fileID: 1754934573731824}
  m_CullTransparentMesh: 0
--- !u!114 &114614397263926700
MonoBehaviour:
  m_ObjectHideFlags: 0
  m_CorrespondingSourceObject: {fileID: 0}
  m_PrefabInstance: {fileID: 0}
  m_PrefabAsset: {fileID: 0}
  m_GameObject: {fileID: 1754934573731824}
  m_Enabled: 1
  m_EditorHideFlags: 0
  m_Script: {fileID: -765806418, guid: f70555f144d8491a825f0804e09c671c, type: 3}
  m_Name: 
  m_EditorClassIdentifier: 
  m_Material: {fileID: 2100000, guid: 412f8428855cd431c8391888b1d924e5, type: 2}
  m_Color: {r: 0.9490196, g: 0.9490196, b: 0.9490196, a: 1}
  m_RaycastTarget: 1
  m_OnCullStateChanged:
    m_PersistentCalls:
      m_Calls: []
  m_Sprite: {fileID: 21300000, guid: 0c6d5806d375b4a11971b65b960f63ec, type: 3}
  m_Type: 1
  m_PreserveAspect: 0
  m_FillCenter: 1
  m_FillMethod: 4
  m_FillAmount: 1
  m_FillClockwise: 1
  m_FillOrigin: 0
  m_UseSpriteMesh: 0
--- !u!114 &114844829394665936
MonoBehaviour:
  m_ObjectHideFlags: 0
  m_CorrespondingSourceObject: {fileID: 0}
  m_PrefabInstance: {fileID: 0}
  m_PrefabAsset: {fileID: 0}
  m_GameObject: {fileID: 1754934573731824}
  m_Enabled: 1
  m_EditorHideFlags: 0
  m_Script: {fileID: -1200242548, guid: f70555f144d8491a825f0804e09c671c, type: 3}
  m_Name: 
  m_EditorClassIdentifier: 
  m_ShowMaskGraphic: 1
--- !u!114 &963674598
MonoBehaviour:
  m_ObjectHideFlags: 0
  m_CorrespondingSourceObject: {fileID: 0}
  m_PrefabInstance: {fileID: 0}
  m_PrefabAsset: {fileID: 0}
  m_GameObject: {fileID: 1754934573731824}
  m_Enabled: 1
  m_EditorHideFlags: 0
  m_Script: {fileID: 11500000, guid: adb30198aa32dd140b5750692dd48104, type: 3}
  m_Name: 
  m_EditorClassIdentifier: 
  material: {fileID: 2100000, guid: 412f8428855cd431c8391888b1d924e5, type: 2}
  radius: 100
--- !u!1 &1857355259566950
GameObject:
  m_ObjectHideFlags: 0
  m_CorrespondingSourceObject: {fileID: 0}
  m_PrefabInstance: {fileID: 0}
  m_PrefabAsset: {fileID: 0}
  serializedVersion: 6
  m_Component:
  - component: {fileID: 224231311457250648}
  - component: {fileID: 222943360628039724}
  - component: {fileID: 114472625462184374}
  - component: {fileID: 114062262261941498}
  m_Layer: 5
  m_Name: Separator
  m_TagString: Untagged
  m_Icon: {fileID: 0}
  m_NavMeshLayer: 0
  m_StaticEditorFlags: 0
  m_IsActive: 1
--- !u!224 &224231311457250648
RectTransform:
  m_ObjectHideFlags: 0
  m_CorrespondingSourceObject: {fileID: 0}
  m_PrefabInstance: {fileID: 0}
  m_PrefabAsset: {fileID: 0}
  m_GameObject: {fileID: 1857355259566950}
  m_LocalRotation: {x: -0.0059701684, y: -0, z: -0, w: 0.99998224}
  m_LocalPosition: {x: 0, y: 0, z: -1.5044558}
  m_LocalScale: {x: 1, y: 1, z: 1}
  m_Children: []
  m_Father: {fileID: 224875524645368128}
  m_RootOrder: 1
  m_LocalEulerAnglesHint: {x: 0, y: 0, z: 0}
  m_AnchorMin: {x: 0.5, y: 0}
  m_AnchorMax: {x: 0.5, y: 0}
  m_AnchoredPosition: {x: -0.5000305, y: 126.091}
  m_SizeDelta: {x: 2, y: 126}
  m_Pivot: {x: 0.5, y: 1}
--- !u!222 &222943360628039724
CanvasRenderer:
  m_ObjectHideFlags: 0
  m_CorrespondingSourceObject: {fileID: 0}
  m_PrefabInstance: {fileID: 0}
  m_PrefabAsset: {fileID: 0}
  m_GameObject: {fileID: 1857355259566950}
  m_CullTransparentMesh: 0
--- !u!114 &114472625462184374
MonoBehaviour:
  m_ObjectHideFlags: 0
  m_CorrespondingSourceObject: {fileID: 0}
  m_PrefabInstance: {fileID: 0}
  m_PrefabAsset: {fileID: 0}
  m_GameObject: {fileID: 1857355259566950}
  m_Enabled: 1
  m_EditorHideFlags: 0
  m_Script: {fileID: -765806418, guid: f70555f144d8491a825f0804e09c671c, type: 3}
  m_Name: 
  m_EditorClassIdentifier: 
  m_Material: {fileID: 0}
  m_Color: {r: 0.6320754, g: 0.6320754, b: 0.6320754, a: 1}
  m_RaycastTarget: 0
  m_OnCullStateChanged:
    m_PersistentCalls:
      m_Calls: []
  m_Sprite: {fileID: 0}
  m_Type: 0
  m_PreserveAspect: 0
  m_FillCenter: 1
  m_FillMethod: 4
  m_FillAmount: 1
  m_FillClockwise: 1
  m_FillOrigin: 0
  m_UseSpriteMesh: 0
--- !u!114 &114062262261941498
MonoBehaviour:
  m_ObjectHideFlags: 0
  m_CorrespondingSourceObject: {fileID: 0}
  m_PrefabInstance: {fileID: 0}
  m_PrefabAsset: {fileID: 0}
  m_GameObject: {fileID: 1857355259566950}
  m_Enabled: 1
  m_EditorHideFlags: 0
  m_Script: {fileID: 1679637790, guid: f70555f144d8491a825f0804e09c671c, type: 3}
  m_Name: 
  m_EditorClassIdentifier: 
  m_IgnoreLayout: 0
  m_MinWidth: -1
  m_MinHeight: -1
  m_PreferredWidth: 2
  m_PreferredHeight: -1
  m_FlexibleWidth: -1
  m_FlexibleHeight: -1
  m_LayoutPriority: 1
--- !u!1 &1901651538577164
GameObject:
  m_ObjectHideFlags: 0
  m_CorrespondingSourceObject: {fileID: 0}
  m_PrefabInstance: {fileID: 0}
  m_PrefabAsset: {fileID: 0}
  serializedVersion: 6
  m_Component:
  - component: {fileID: 224777973253788046}
  - component: {fileID: 223069643383914686}
  - component: {fileID: 225929914806377748}
  - component: {fileID: 114248379043675314}
  - component: {fileID: 114912703239162590}
  - component: {fileID: 114644837546298826}
  m_Layer: 0
  m_Name: UIE - Notification Container
  m_TagString: Untagged
  m_Icon: {fileID: 0}
  m_NavMeshLayer: 0
  m_StaticEditorFlags: 0
  m_IsActive: 1
--- !u!224 &224777973253788046
RectTransform:
  m_ObjectHideFlags: 0
  m_CorrespondingSourceObject: {fileID: 0}
  m_PrefabInstance: {fileID: 0}
  m_PrefabAsset: {fileID: 0}
  m_GameObject: {fileID: 1901651538577164}
  m_LocalRotation: {x: 0, y: 0, z: 0, w: 1}
  m_LocalPosition: {x: 0, y: 0, z: 0}
  m_LocalScale: {x: 1, y: 1, z: 1}
  m_Children:
  - {fileID: 224875524645368128}
  - {fileID: 224212441510328902}
  - {fileID: 224756735689759134}
  m_Father: {fileID: 224065174117190010}
  m_RootOrder: 1
  m_LocalEulerAnglesHint: {x: 0, y: 0, z: 0}
  m_AnchorMin: {x: 0, y: 0.5}
  m_AnchorMax: {x: 1, y: 0.5}
  m_AnchoredPosition: {x: 0, y: 0}
  m_SizeDelta: {x: -180, y: 490}
  m_Pivot: {x: 0.5, y: 0.5}
--- !u!223 &223069643383914686
Canvas:
  m_ObjectHideFlags: 0
  m_CorrespondingSourceObject: {fileID: 0}
  m_PrefabInstance: {fileID: 0}
  m_PrefabAsset: {fileID: 0}
  m_GameObject: {fileID: 1901651538577164}
  m_Enabled: 1
  serializedVersion: 3
  m_RenderMode: 2
  m_Camera: {fileID: 0}
  m_PlaneDistance: 100
  m_PixelPerfect: 0
  m_ReceivesEvents: 1
  m_OverrideSorting: 1
  m_OverridePixelPerfect: 0
  m_SortingBucketNormalizedSize: 0
  m_AdditionalShaderChannelsFlag: 0
  m_SortingLayerID: 0
  m_SortingOrder: 1000
  m_TargetDisplay: 0
--- !u!225 &225929914806377748
CanvasGroup:
  m_ObjectHideFlags: 0
  m_CorrespondingSourceObject: {fileID: 0}
  m_PrefabInstance: {fileID: 0}
  m_PrefabAsset: {fileID: 0}
  m_GameObject: {fileID: 1901651538577164}
  m_Enabled: 1
  m_Alpha: 1
  m_Interactable: 1
  m_BlocksRaycasts: 1
  m_IgnoreParentGroups: 0
--- !u!114 &114248379043675314
MonoBehaviour:
  m_ObjectHideFlags: 0
  m_CorrespondingSourceObject: {fileID: 0}
  m_PrefabInstance: {fileID: 0}
  m_PrefabAsset: {fileID: 0}
  m_GameObject: {fileID: 1901651538577164}
  m_Enabled: 1
  m_EditorHideFlags: 0
  m_Script: {fileID: 1301386320, guid: f70555f144d8491a825f0804e09c671c, type: 3}
  m_Name: 
  m_EditorClassIdentifier: 
  m_IgnoreReversedGraphics: 1
  m_BlockingObjects: 0
  m_BlockingMask:
    serializedVersion: 2
    m_Bits: 4294967295
--- !u!114 &114912703239162590
MonoBehaviour:
  m_ObjectHideFlags: 0
  m_CorrespondingSourceObject: {fileID: 0}
  m_PrefabInstance: {fileID: 0}
  m_PrefabAsset: {fileID: 0}
  m_GameObject: {fileID: 1901651538577164}
  m_Enabled: 1
  m_EditorHideFlags: 0
  m_Script: {fileID: 11500000, guid: abb5c4702c7d6e344b9832a97ae1264d, type: 3}
  m_Name: 
  m_EditorClassIdentifier: 
  elementCategory: Uncategorized
  elementName: TwoOptionsTitleUINotification (-1238806)
  LANDSCAPE: 1
  PORTRAIT: 1
  startHidden: 1
  animateAtStart: 0
  disableWhenHidden: 0
  dontDisableCanvasWhenHidden: 0
  disableGraphicRaycaster: 0
  autoHide: 0
  autoHideDelay: 3
  useCustomStartAnchoredPosition: 0
  customStartAnchoredPosition: {x: 0, y: 0, z: 0}
  executeLayoutFix: 0
  deselectAnySelectedButtonOnShow: 0
  deselectAnySelectedButtonOnHide: 0
  enableAutoSelectButtonAfterShow: 1
  selectedButton: {fileID: 0}
  linkedToNotification: 1
  autoRegister: 0
  isVisible: 1
  inAnimations:
    animationType: 0
    move:
      enabled: 0
      animationType: 0
      moveDirection: 0
      customPosition: {x: 0, y: 0, z: 0}
      easeType: 0
      ease: 18
      animationCurve:
        serializedVersion: 2
        m_Curve: []
        m_PreInfinity: 2
        m_PostInfinity: 2
        m_RotationOrder: 4
      startDelay: 0.25
      duration: 0.25
    rotate:
      enabled: 0
      animationType: 0
      rotation: {x: 0, y: 0, z: -30}
      rotateMode: 0
      easeType: 0
      ease: 7
      animationCurve:
        serializedVersion: 2
        m_Curve: []
        m_PreInfinity: 2
        m_PostInfinity: 2
        m_RotationOrder: 4
      startDelay: 0
      duration: 0.45
    scale:
      enabled: 1
      animationType: 0
      scale: {x: 1.2, y: 1.2, z: 1}
      easeType: 0
      ease: 21
      animationCurve:
        serializedVersion: 2
        m_Curve: []
        m_PreInfinity: 2
        m_PostInfinity: 2
        m_RotationOrder: 4
      startDelay: 0
      duration: 0.3
    fade:
      enabled: 1
      animationType: 0
      alpha: 1
      easeType: 0
      ease: 1
      animationCurve:
        serializedVersion: 2
        m_Curve: []
        m_PreInfinity: 2
        m_PostInfinity: 2
        m_RotationOrder: 4
      startDelay: 0
      duration: 0.2
    moveIsExpanded:
      m_Target: 0
      speed: 2
      m_Value: 0
    rotateIsExpanded:
      m_Target: 0
      speed: 2
      m_Value: 0
    scaleIsExpanded:
      m_Target: 1
      speed: 2
      m_Value: 1
    fadeIsExpanded:
      m_Target: 1
      speed: 2
      m_Value: 1
  OnInAnimationsStart:
    m_PersistentCalls:
      m_Calls: []
  OnInAnimationsFinish:
    m_PersistentCalls:
      m_Calls: []
  inAnimationsPresetCategoryName: Scale
  inAnimationsPresetName: FadeFast
  loadInAnimationsPresetAtRuntime: 1
  inAnimationsSoundAtStart: ~No Sound~
  customInAnimationsSoundAtStart: 0
  inAnimationsSoundAtFinish: ~No Sound~
  customInAnimationsSoundAtFinish: 0
  outAnimations:
    animationType: 1
    move:
      enabled: 0
      animationType: 1
      moveDirection: 11
      customPosition: {x: 0, y: 0, z: 0}
      easeType: 0
      ease: 26
      animationCurve:
        serializedVersion: 2
        m_Curve: []
        m_PreInfinity: 2
        m_PostInfinity: 2
        m_RotationOrder: 4
      startDelay: 0
      duration: 0.5
    rotate:
      enabled: 0
      animationType: 1
      rotation: {x: 0, y: 0, z: 30}
      rotateMode: 0
      easeType: 0
      ease: 7
      animationCurve:
        serializedVersion: 2
        m_Curve: []
        m_PreInfinity: 2
        m_PostInfinity: 2
        m_RotationOrder: 4
      startDelay: 0
      duration: 0.45
    scale:
      enabled: 1
      animationType: 1
      scale: {x: 0, y: 0, z: 1}
      easeType: 0
      ease: 20
      animationCurve:
        serializedVersion: 2
        m_Curve: []
        m_PreInfinity: 2
        m_PostInfinity: 2
        m_RotationOrder: 4
      startDelay: 0
      duration: 0.3
    fade:
      enabled: 1
      animationType: 1
      alpha: 1
      easeType: 0
      ease: 1
      animationCurve:
        serializedVersion: 2
        m_Curve: []
        m_PreInfinity: 2
        m_PostInfinity: 2
        m_RotationOrder: 4
      startDelay: 0
      duration: 0.1
    moveIsExpanded:
      m_Target: 0
      speed: 2
      m_Value: 0
    rotateIsExpanded:
      m_Target: 0
      speed: 2
      m_Value: 0
    scaleIsExpanded:
      m_Target: 1
      speed: 2
      m_Value: 1
    fadeIsExpanded:
      m_Target: 1
      speed: 2
      m_Value: 1
  OnOutAnimationsStart:
    m_PersistentCalls:
      m_Calls: []
  OnOutAnimationsFinish:
    m_PersistentCalls:
      m_Calls: []
  outAnimationsPresetCategoryName: Scale
  outAnimationsPresetName: FadeFast
  loadOutAnimationsPresetAtRuntime: 1
  outAnimationsSoundAtStart: ~No Sound~
  customOutAnimationsSoundAtStart: 0
  outAnimationsSoundAtFinish: ~No Sound~
  customOutAnimationsSoundAtFinish: 0
  loopAnimations:
    autoStart: 0
    move:
      enabled: 0
      movement: {x: 0, y: 0, z: 0}
      easeType: 0
      ease: 1
      animationCurve:
        serializedVersion: 2
        m_Curve: []
        m_PreInfinity: 2
        m_PostInfinity: 2
        m_RotationOrder: 4
      loops: -1
      loopType: 1
      startDelay: 0
      duration: 0.5
    rotate:
      enabled: 0
      rotation: {x: 0, y: 0, z: 0}
      easeType: 0
      ease: 1
      animationCurve:
        serializedVersion: 2
        m_Curve: []
        m_PreInfinity: 2
        m_PostInfinity: 2
        m_RotationOrder: 4
      loops: -1
      loopType: 1
      rotateMode: 0
      startDelay: 0
      duration: 0.5
    scale:
      enabled: 0
      min: {x: 1, y: 1, z: 1}
      max: {x: 1.05, y: 1.05, z: 1.05}
      easeType: 0
      ease: 1
      animationCurve:
        serializedVersion: 2
        m_Curve: []
        m_PreInfinity: 2
        m_PostInfinity: 2
        m_RotationOrder: 4
      loops: -1
      loopType: 1
      startDelay: 0
      duration: 0.5
    fade:
      enabled: 0
      min: 0
      max: 1
      easeType: 0
      ease: 1
      animationCurve:
        serializedVersion: 2
        m_Curve: []
        m_PreInfinity: 2
        m_PostInfinity: 2
        m_RotationOrder: 4
      loops: -1
      loopType: 1
      startDelay: 0
      duration: 0.5
    moveIsExpanded:
      m_Target: 0
      speed: 2
      m_Value: 0
    rotateIsExpanded:
      m_Target: 0
      speed: 2
      m_Value: 0
    scaleIsExpanded:
      m_Target: 0
      speed: 2
      m_Value: 0
    fadeIsExpanded:
      m_Target: 0
      speed: 2
      m_Value: 0
  loopAnimationsPresetCategoryName: Uncategorized
  loopAnimationsPresetName: DefaultPreset
  loadLoopAnimationsPresetAtRuntime: 0
--- !u!114 &114644837546298826
MonoBehaviour:
  m_ObjectHideFlags: 0
  m_CorrespondingSourceObject: {fileID: 0}
  m_PrefabInstance: {fileID: 0}
  m_PrefabAsset: {fileID: 0}
  m_GameObject: {fileID: 1901651538577164}
  m_Enabled: 1
  m_EditorHideFlags: 0
  m_Script: {fileID: 1392445389, guid: f70555f144d8491a825f0804e09c671c, type: 3}
  m_Name: 
  m_EditorClassIdentifier: 
  m_Navigation:
    m_Mode: 3
    m_SelectOnUp: {fileID: 0}
    m_SelectOnDown: {fileID: 0}
    m_SelectOnLeft: {fileID: 0}
    m_SelectOnRight: {fileID: 0}
  m_Transition: 0
  m_Colors:
    m_NormalColor: {r: 1, g: 1, b: 1, a: 1}
    m_HighlightedColor: {r: 0.9607843, g: 0.9607843, b: 0.9607843, a: 1}
    m_PressedColor: {r: 0.78431374, g: 0.78431374, b: 0.78431374, a: 1}
    m_DisabledColor: {r: 0.78431374, g: 0.78431374, b: 0.78431374, a: 0.5019608}
    m_ColorMultiplier: 1
    m_FadeDuration: 0.1
  m_SpriteState:
    m_HighlightedSprite: {fileID: 0}
    m_PressedSprite: {fileID: 0}
    m_DisabledSprite: {fileID: 0}
  m_AnimationTriggers:
    m_NormalTrigger: Normal
    m_HighlightedTrigger: Highlighted
    m_PressedTrigger: Pressed
    m_DisabledTrigger: Disabled
  m_Interactable: 1
  m_TargetGraphic: {fileID: 0}
  m_OnClick:
    m_PersistentCalls:
      m_Calls: []
--- !u!1 &1909608755650070
GameObject:
  m_ObjectHideFlags: 0
  m_CorrespondingSourceObject: {fileID: 0}
  m_PrefabInstance: {fileID: 0}
  m_PrefabAsset: {fileID: 0}
  serializedVersion: 6
  m_Component:
  - component: {fileID: 224877528831160042}
  - component: {fileID: 222915476436817254}
  - component: {fileID: 114955164092615522}
  m_Layer: 5
  m_Name: Text
  m_TagString: Untagged
  m_Icon: {fileID: 0}
  m_NavMeshLayer: 0
  m_StaticEditorFlags: 0
  m_IsActive: 1
--- !u!224 &224877528831160042
RectTransform:
  m_ObjectHideFlags: 0
  m_CorrespondingSourceObject: {fileID: 0}
  m_PrefabInstance: {fileID: 0}
  m_PrefabAsset: {fileID: 0}
  m_GameObject: {fileID: 1909608755650070}
  m_LocalRotation: {x: 0, y: 0, z: 0, w: 1}
  m_LocalPosition: {x: 0, y: 0, z: 0}
  m_LocalScale: {x: 1, y: 1, z: 1}
  m_Children: []
  m_Father: {fileID: 224515376074389142}
  m_RootOrder: 0
  m_LocalEulerAnglesHint: {x: 0, y: 0, z: 0}
  m_AnchorMin: {x: 0, y: 0}
  m_AnchorMax: {x: 1, y: 1}
  m_AnchoredPosition: {x: 0, y: 0}
  m_SizeDelta: {x: 0, y: 0}
  m_Pivot: {x: 0.5, y: 0.5}
--- !u!222 &222915476436817254
CanvasRenderer:
  m_ObjectHideFlags: 0
  m_CorrespondingSourceObject: {fileID: 0}
  m_PrefabInstance: {fileID: 0}
  m_PrefabAsset: {fileID: 0}
  m_GameObject: {fileID: 1909608755650070}
  m_CullTransparentMesh: 0
--- !u!114 &114955164092615522
MonoBehaviour:
  m_ObjectHideFlags: 0
  m_CorrespondingSourceObject: {fileID: 0}
  m_PrefabInstance: {fileID: 0}
  m_PrefabAsset: {fileID: 0}
  m_GameObject: {fileID: 1909608755650070}
  m_Enabled: 1
  m_EditorHideFlags: 0
  m_Script: {fileID: 708705254, guid: f70555f144d8491a825f0804e09c671c, type: 3}
  m_Name: 
  m_EditorClassIdentifier: 
  m_Material: {fileID: 0}
  m_Color: {r: 0, g: 0.47843137, b: 1, a: 1}
  m_RaycastTarget: 0
  m_OnCullStateChanged:
    m_PersistentCalls:
      m_Calls: []
  m_FontData:
    m_Font: {fileID: 12800000, guid: f841c671835a244959b7f6d4a910e729, type: 3}
    m_FontSize: 42
    m_FontStyle: 0
    m_BestFit: 0
    m_MinSize: 4
    m_MaxSize: 44
    m_Alignment: 4
    m_AlignByGeometry: 0
    m_RichText: 1
    m_HorizontalOverflow: 1
    m_VerticalOverflow: 1
    m_LineSpacing: 1
  m_Text: Not completed
--- !u!1 &1995706705826164
GameObject:
  m_ObjectHideFlags: 0
  m_CorrespondingSourceObject: {fileID: 0}
  m_PrefabInstance: {fileID: 0}
  m_PrefabAsset: {fileID: 0}
  serializedVersion: 6
  m_Component:
  - component: {fileID: 224756735689759134}
  - component: {fileID: 222903926645604946}
  - component: {fileID: 114137731072986298}
  m_Layer: 5
  m_Name: Notification Message
  m_TagString: Untagged
  m_Icon: {fileID: 0}
  m_NavMeshLayer: 0
  m_StaticEditorFlags: 0
  m_IsActive: 1
--- !u!224 &224756735689759134
RectTransform:
  m_ObjectHideFlags: 0
  m_CorrespondingSourceObject: {fileID: 0}
  m_PrefabInstance: {fileID: 0}
  m_PrefabAsset: {fileID: 0}
  m_GameObject: {fileID: 1995706705826164}
  m_LocalRotation: {x: -0, y: -0, z: -0, w: 1}
  m_LocalPosition: {x: 0, y: 0, z: 0}
  m_LocalScale: {x: 1, y: 1, z: 1}
  m_Children: []
  m_Father: {fileID: 224777973253788046}
  m_RootOrder: 2
  m_LocalEulerAnglesHint: {x: 0, y: 0, z: 0}
  m_AnchorMin: {x: 0.08263356, y: 0.24427849}
  m_AnchorMax: {x: 0.9173663, y: 0.7577331}
  m_AnchoredPosition: {x: 0, y: 0}
  m_SizeDelta: {x: 0, y: -0.0000076293945}
  m_Pivot: {x: 0.5, y: 0.5}
--- !u!222 &222903926645604946
CanvasRenderer:
  m_ObjectHideFlags: 0
  m_CorrespondingSourceObject: {fileID: 0}
  m_PrefabInstance: {fileID: 0}
  m_PrefabAsset: {fileID: 0}
  m_GameObject: {fileID: 1995706705826164}
  m_CullTransparentMesh: 0
--- !u!114 &114137731072986298
MonoBehaviour:
  m_ObjectHideFlags: 0
  m_CorrespondingSourceObject: {fileID: 0}
  m_PrefabInstance: {fileID: 0}
  m_PrefabAsset: {fileID: 0}
  m_GameObject: {fileID: 1995706705826164}
  m_Enabled: 1
  m_EditorHideFlags: 0
  m_Script: {fileID: 708705254, guid: f70555f144d8491a825f0804e09c671c, type: 3}
  m_Name: 
  m_EditorClassIdentifier: 
  m_Material: {fileID: 0}
  m_Color: {r: 0, g: 0, b: 0, a: 1}
  m_RaycastTarget: 0
  m_OnCullStateChanged:
    m_PersistentCalls:
      m_Calls: []
  m_FontData:
    m_Font: {fileID: 12800000, guid: 9a57c1f3abdc2471da6e5201d7f4ff6b, type: 3}
    m_FontSize: 49
    m_FontStyle: 0
    m_BestFit: 0
    m_MinSize: 4
    m_MaxSize: 86
    m_Alignment: 4
    m_AlignByGeometry: 0
    m_RichText: 1
    m_HorizontalOverflow: 0
    m_VerticalOverflow: 0
    m_LineSpacing: 1
  m_Text: Take asthma control test
